{
  "name": "icons",
  "css_prefix_text": "icon-",
  "css_use_suffix": false,
  "hinting": true,
  "units_per_em": 1000,
  "ascent": 850,
  "glyphs": [
    {
      "uid": "aec47313ed60b45181173a798d5cf25b",
      "css": "checkbox",
      "code": 59392,
      "src": "custom_icons",
      "selected": true,
      "svg": {
        "path": "M888.9 111.1V888.9H111.1V111.1H888.9M888.9 0H111.1C50 0 0 50 0 111.1V888.9C0 950 50 1000 111.1 1000H888.9C950 1000 1000 950 1000 888.9V111.1C1000 50 950 0 888.9 0L888.9 0Z",
        "width": 1000
      },
      "search": [
        "checkbox"
      ]
    },
    {
      "uid": "e1c76be7f83e2f83ed8b1e6e449c709c",
      "css": "checkbox-checked",
      "code": 59393,
      "src": "custom_icons",
      "selected": true,
      "svg": {
        "path": "M272.2 394.4L194.4 472.2 444.4 722.2 1000 166.7 922.2 88.9 444.4 566.7 272.2 394.4ZM888.9 888.9H111.1V111.1H666.7V0H111.1C50 0 0 50 0 111.1V888.9C0 950 50 1000 111.1 1000H888.9C950 1000 1000 950 1000 888.9V444.4H888.9V888.9Z",
        "width": 1000
      },
      "search": [
        "checkbox-checked"
      ]
    },
    {
      "uid": "97c0ee2bff1fb25078ce15f4fe963944",
      "css": "radio",
      "code": 59394,
      "src": "custom_icons",
      "selected": true,
      "svg": {
        "path": "M500 0C225 0 0 225 0 500S225 1000 500 1000 1000 775 1000 500 775 0 500 0ZM500 900C280 900 100 720 100 500S280 100 500 100 900 280 900 500 720 900 500 900Z",
        "width": 1000
      },
      "search": [
        "radio"
      ]
    },
    {
      "uid": "453d845f85df02fbafca597181130dd3",
      "css": "radio-checked",
      "code": 59395,
      "src": "custom_icons",
      "selected": true,
      "svg": {
        "path": "M500 250C360 250 250 360 250 500 250 640 360 750 500 750 640 750 750 640 750 500 750 360 640 250 500 250ZM500 0C225 0 0 225 0 500S225 1000 500 1000 1000 775 1000 500 775 0 500 0ZM500 900C280 900 100 720 100 500S280 100 500 100 900 280 900 500 720 900 500 900Z",
        "width": 1000
      },
      "search": [
        "radio-checked"
      ]
    },
    {
      "uid": "e82cedfa1d5f15b00c5a81c9bd731ea2",
      "css": "info-circled",
      "code": 59396,
      "src": "fontawesome"
    },
    {
      "uid": "b035c28eba2b35c6ffe92aee8b0df507",
      "css": "attention-circled",
      "code": 59397,
      "src": "fontawesome"
    },
    {
      "uid": "c76b7947c957c9b78b11741173c8349b",
      "css": "attention",
      "code": 59398,
      "src": "fontawesome"
    },
    {
      "uid": "0f4cae16f34ae243a6144c18a003f2d8",
      "css": "cancel-circled",
      "code": 59399,
      "src": "fontawesome"
    },
    {
      "uid": "ccddff8e8670dcd130e3cb55fdfc2fd0",
      "css": "down-open",
      "code": 59400,
      "src": "fontawesome"
    },
    {
      "uid": "d870630ff8f81e6de3958ecaeac532f2",
      "css": "left-open",
      "code": 59401,
      "src": "fontawesome"
    },
    {
      "uid": "399ef63b1e23ab1b761dfbb5591fa4da",
      "css": "right-open",
      "code": 59402,
      "src": "fontawesome"
    },
    {
      "uid": "fe6697b391355dec12f3d86d6d490397",
      "css": "up-open",
      "code": 59403,
      "src": "fontawesome"
    },
    {
      "uid": "3151198e23e5609e025d903512f13579",
      "css": "xart",
      "code": 59404,
      "src": "custom_icons",
      "selected": true,
      "svg": {
        "path": "M0.3 135.8C0.7 267.1 0.7 271 3 285.2 7.5 312.3 13.7 333.1 23.7 353.6 52.5 412.9 109 454.7 186.6 473.8 219 481.7 242.6 484.4 281.8 484.3L307.5 484.3 294.5 480C280 475.1 274.4 472.5 257.8 462.8 248.8 457.5 243.4 453.2 234.3 444.2 195.2 405.4 176 345.5 170.8 246.1 170.2 234.4 169.6 219.5 169.6 212.8L169.6 200.9 192.9 200.9C244.4 200.9 285.3 210.4 326.7 232.1 367.2 253.3 401.1 281.4 446.9 331.5 489.4 377.9 500.4 389.6 508.5 396.8L516.9 404.4 516.4 312.4C516 211.7 516.2 215.3 508.8 185.3 493 121 456.8 68.9 406.3 37.6 380 21.5 344.8 9.6 305.8 3.7 294.3 2 278.2 1.8 146.4 1.5L-0.1 1 0.3 135.8ZM777.9 2.3C659.2 12.7 580.9 82.9 557.6 199.8 552.7 224.8 552.3 233 552.7 321.2L553 404.1 562.8 395C568.2 390 586.5 370.9 603.5 352.5 620.3 334 641 312.3 649.3 304 710.6 243 766.6 212.9 837.6 202.9 848.5 201.5 897.7 200.9 899.1 202.3 900.1 203.3 898 257.1 896.2 276.8 889 355.8 869.4 408.8 834.9 443.2 817 461.2 800.1 471.4 774.7 480L761.7 484.4 787.9 484.4C826 484.4 851.9 481.6 881.7 474.1 949.6 457.3 1000.9 424 1032.8 376.2 1045.5 357.1 1057.3 328.9 1062.6 304.5 1068.6 276.8 1068.4 281.9 1068.9 136.4L1069.3 1.1 928.9 1.2C851.7 1.3 783.7 1.8 777.9 2.3ZM229.2 519.5C168.3 527.5 113.6 549.4 75.1 581.8 40 611.4 16.3 651.7 6.3 699.3 0.2 728.2 0 733.4 0 872.2L0 1000.1 147.1 999.7C279.9 999.3 295.3 999.1 306.9 997.4 366.4 988.4 410.7 967.5 446.3 931.8 480.5 897.5 502.6 852.2 513.6 793.9 516.1 780.9 516.1 778.9 516.4 678.6 516.6 622.4 516.6 569.4 516.5 560.8L516.2 545.2 506.7 564.2C496.4 584.7 493.8 591 475.2 640 468.5 657.8 460.3 678.9 456.9 686.8 425.6 760.5 387.8 797.5 330.6 810.7L323.7 812.3 318.6 806.6C295.3 780.1 268.2 723 256.7 676.1 248.3 642.4 245.6 607.8 249.3 582.6 252.9 558.8 261.8 537.5 274.6 523.1L279.2 517.9 259.8 518C249.2 518.1 235.4 518.8 229.2 519.5ZM795.2 523.7C811.4 541.6 820 567.4 821.1 601.1 822.1 631.3 818.1 659.6 808 693.1 795.5 734.5 770 785.2 750.7 806.6L745.5 812.3 738.5 810.7C709.3 804.1 683 789.2 662.1 767.3 637.8 742.1 621.8 712.7 599.3 653.5 579.9 602.2 571 580.4 562.2 562.5L553 544.2 552.7 653.5C552.5 726.6 552.8 767 553.6 775.1 556.7 806.9 567 843.1 580.8 871.3 594.1 898.1 607 916.2 626.8 935.3 658.3 965.5 695.6 984.4 743 993.9 774 1000 774.7 1000 927.8 1000L1069.3 1000 1068.9 864.6C1068.5 741.9 1068.3 728.2 1066.5 717.6 1057.8 665.5 1041.1 629.6 1010 596.7 966.4 550.1 883.7 517.9 808.5 517.9L790 517.9 795.2 523.7Z",
        "width": 1070
      },
      "search": [
        "xart"
      ]
    },
    {
      "uid": "559647a6f430b3aeadbecd67194451dd",
      "css": "menu",
      "code": 61641,
      "src": "fontawesome"
    },
    {
      "uid": "5211af474d3a9848f67f945e2ccaf143",
      "css": "cancel",
      "code": 59405,
      "src": "fontawesome"
    },
    {
      "uid": "d9be617b7f2fe7843118ca2d3a1b8cca",
      "css": "down-open-1",
      "code": 61444,
      "src": "mfglabs"
    },
    {
      "uid": "b714be5a812a474811604f700dfc87ce",
      "css": "left-open-1",
      "code": 61447,
      "src": "mfglabs"
    },
    {
      "uid": "37910a1398001a5ccb541cb2a253a2c7",
      "css": "right-open-1",
      "code": 61446,
      "src": "mfglabs"
    },
    {
      "uid": "440e148d0e21100118eae7036bcd2067",
      "css": "up-open-1",
      "code": 61445,
      "src": "mfglabs"
    },
    {
      "uid": "500fc1f109021e4b1de4deda2f7ed399",
      "css": "laptop",
      "code": 61705,
      "src": "fontawesome"
    },
    {
      "uid": "fb02c2939c442c122220c8d314e72b79",
      "css": "rivax",
      "code": 59406,
      "src": "custom_icons",
      "selected": true,
      "svg": {
        "path": "M28.3 1000H0V0H408.8C613.2 0 710.7 84.9 713.8 254.7 717 386.8 638.4 481.1 500 512.6V515.7C669.8 537.7 698.1 632.1 698.1 792.5 698.1 852.2 704.4 971.7 723.3 996.9H691.8C676.1 956 669.8 852.2 669.8 786.2 669.8 622.6 635.2 528.3 405.7 528.3H28.3V1000ZM28.3 503.1H402.5C550.3 503.1 688.7 427.7 685.5 254.7 685.5 113.2 606.9 28.3 415.1 28.3H28.3V503.1ZM940.3 0H968.6V1000H940.3V0ZM1905.7 0H1934L1550.3 1000H1518.9L1128.9 0H1157.2L1534.6 962.3H1537.7L1905.7 0ZM2006.3 669.8L1874.2 1000H1842.8L2245.3 0H2283L2676.1 1000H2644.7L2515.7 669.8H2006.3ZM2503.1 641.5L2267.3 28.3H2264.2L2018.9 641.5H2503.1ZM3402.5 0H3437.1L3075.5 484.3 3456 996.9H3421.4L3056.6 509.4 2688.7 1000H2654.1L3037.7 487.4 2673 0H2710.7L3056.6 462.3 3402.5 0Z",
        "width": 3456
      },
      "search": [
        "rivax"
      ]
    },
    {
      "uid": "a78138f5d71dd00d370e3c47d6a46354",
      "css": "vybertesi",
      "code": 59407,
      "src": "custom_icons",
      "selected": true,
      "svg": {
        "path": "M757.1 645.2C754.8 645.2 752.4 644 750 642.9 747.6 641.7 746.4 639.3 744 636.9 742.9 634.5 741.7 632.1 740.5 629.8 739.3 627.4 739.3 625 739.3 622.6 740.5 610.7 744 595.2 752.4 572.6 759.5 551.2 771.4 522.6 785.7 489.3 814.3 423.8 828.6 382.1 829.8 364.3 829.8 364.3 829.8 363.1 829.8 363.1 829.8 363.1 829.8 361.9 829.8 360.7V354.8C829.8 342.9 823.8 336.9 811.9 336.9 810.7 336.9 809.5 336.9 808.3 336.9 807.1 336.9 806 336.9 804.8 336.9 771.4 341.7 738.1 360.7 706 395.2 676.2 426.2 659.5 454.8 657.1 481 656 491.7 658.3 498.8 664.3 502.4 665.5 502.4 666.7 503.6 667.9 503.6 669 503.6 671.4 503.6 673.8 504.8 676.2 504.8 677.4 506 677.4 507.1 677.4 509.5 675 510.7 671.4 511.9 669 511.9 666.7 510.7 664.3 508.3 663.1 508.3 660.7 507.1 659.5 504.8 658.3 503.6 656 500 653.6 496.4 650 489.3 647.6 483.3 648.8 478.6 652.4 446.4 671.4 414.3 704.8 381 736.9 348.8 769 331 801.2 326.2 811.9 325 821.4 328.6 829.8 335.7 838.1 344 842.9 353.6 842.9 364.3 842.9 373.8 839.3 389.3 832.1 409.5 825 429.8 815.5 456 802.4 488.1 773.8 556 758.3 600 754.8 619 754.8 622.6 754.8 626.2 754.8 631 756 635.7 757.1 638.1 759.5 638.1 761.9 638.1 764.3 635.7 767.9 632.1 797.6 594 823.8 560.7 847.6 533.3 871.4 504.8 892.9 482.1 911.9 463.1 973.8 401.2 1023.8 371.4 1061.9 371.4 1069 371.4 1076.2 372.6 1082.1 373.8 1085.7 376.2 1086.9 377.4 1086.9 377.4 1086.9 378.6 1085.7 378.6 1082.1 378.6 1079.8 378.6 1077.4 377.4 1075 377.4 1072.6 377.4 1070.2 377.4 1067.9 377.4 1039.3 377.4 1004.8 394 964.3 428.6 948.8 440.5 932.1 456 914.3 473.8 896.4 491.7 877.4 513.1 857.1 535.7 842.9 552.4 828.6 569 815.5 585.7 801.2 602.4 788.1 619 773.8 636.9 766.7 642.9 761.9 645.2 757.1 645.2ZM966.7 595.2C969 585.7 970.2 578.6 971.4 572.6 972.6 566.7 973.8 561.9 973.8 557.1 960.7 569 944 581 925 594 898.8 611.9 878.6 623.8 863.1 629.8 861.9 629.8 860.7 631 859.5 631 857.1 631 854.8 629.8 853.6 628.6 852.4 626.2 851.2 625 852.4 622.6 853.6 616.7 866.7 594 889.3 552.4 889.3 551.2 889.3 548.8 889.3 545.2 889.3 541.7 889.3 539.3 890.5 538.1 891.7 535.7 896.4 533.3 906 529.8 915.5 525 921.4 522.6 923.8 522.6 927.4 522.6 929.8 525 929.8 528.6 923.8 531 914.3 541.7 901.2 559.5 890.5 576.2 882.1 589.3 877.4 598.8 876.2 601.2 876.2 602.4 876.2 603.6 876.2 606 877.4 608.3 879.8 608.3 882.1 609.5 884.5 609.5 886.9 608.3 892.9 606 900 602.4 909.5 597.6 917.9 592.9 928.6 585.7 939.3 578.6 947.6 572.6 956 566.7 961.9 561.9 967.9 557.1 973.8 552.4 977.4 548.8 978.6 546.4 979.8 544 982.1 542.9 983.3 541.7 985.7 540.5 988.1 539.3 992.9 539.3 996.4 540.5 998.8 542.9 1001.2 545.2 1002.4 547.6 1001.2 550 1000 551.2 998.8 552.4 997.6 554.8 996.4 556 995.2 558.3 994 560.7 988.1 579.8 979.8 607.1 969 641.7 1009.5 634.5 1048.8 629.8 1086.9 629.8 1100 629.8 1110.7 631 1117.9 632.1 1120.2 632.1 1123.8 633.3 1127.4 635.7 1131 638.1 1133.3 640.5 1135.7 642.9 1138.1 645.2 1140.5 648.8 1141.7 651.2 1142.9 654.8 1144 658.3 1144 660.7 1144 664.3 1142.9 666.7 1141.7 669 1138.1 676.2 1129.8 684.5 1115.5 695.2 1113.1 697.6 1111.9 698.8 1109.5 698.8 1109.5 698.8 1108.3 698.8 1108.3 698.8 1108.3 697.6 1109.5 695.2 1111.9 694 1127.4 678.6 1135.7 665.5 1135.7 653.6 1135.7 644 1128.6 638.1 1115.5 636.9 1111.9 636.9 1107.1 636.9 1102.4 636.9 1097.6 636.9 1091.7 636.9 1085.7 636.9 1036.9 636.9 997.6 640.5 966.7 646.4 886.9 872.6 790.5 990.5 677.4 997.6 638.1 1000 603.6 988.1 570.2 961.9 538.1 935.7 521.4 907.1 521.4 876.2 521.4 865.5 523.8 856 527.4 846.4 547.6 797.6 613.1 752.4 721.4 709.5 758.3 695.2 796.4 682.1 835.7 670.2 873.8 658.3 913.1 648.8 953.6 641.7 957.1 632.1 961.9 615.5 966.7 595.2ZM533.3 871.4C532.1 875 532.1 879.8 532.1 884.5 532.1 913.1 546.4 938.1 575 959.5 604.8 982.1 638.1 992.9 676.2 991.7 740.5 989.3 802.4 940.5 861.9 845.2 879.8 815.5 896.4 784.5 911.9 752.4 927.4 720.2 940.5 685.7 952.4 650 854.8 670.2 770.2 696.4 696.4 731 608.3 771.4 556 814.3 538.1 858.3 535.7 863.1 533.3 867.9 533.3 871.4ZM1050 510.7C1050 509.5 1051.2 508.3 1051.2 507.1 1051.2 506 1051.2 507.1 1050 510.7L1050 507.1C1150 281 1257.1 164.3 1371.4 157.1 1410.7 154.8 1445.2 166.7 1475 192.9 1506 219 1519 247.6 1515.5 279.8 1514.3 289.3 1511.9 300 1507.1 309.5 1481 358.3 1413.1 403.6 1301.2 446.4 1261.9 460.7 1222.6 473.8 1183.3 485.7 1144 496.4 1103.6 506 1061.9 514.3 1058.3 521.4 1053.6 529.8 1048.8 540.5 1044 551.2 1039.3 564.3 1033.3 579.8 1031 584.5 1029.8 588.1 1028.6 592.9 1027.4 596.4 1026.2 600 1025 603.6 1029.8 598.8 1036.9 594 1045.2 588.1 1053.6 582.1 1065.5 575 1078.6 565.5 1095.2 554.8 1108.3 546.4 1120.2 539.3 1132.1 532.1 1141.7 527.4 1150 523.8 1152.4 522.6 1154.8 522.6 1158.3 522.6 1167.9 522.6 1171.4 527.4 1171.4 538.1 1171.4 540.5 1170.2 541.7 1169 544 1167.9 546.4 1167.9 547.6 1166.7 550 1151.2 576.2 1127.4 598.8 1094 619 1060.7 639.3 1031 648.8 1002.4 647.6 1002.4 647.6 1001.2 647.6 1000 646.4 997.6 646.4 996.4 645.2 994 642.9 992.9 640.5 991.7 639.3 991.7 636.9 992.9 634.5 994 631 997.6 627.4 1003.6 615.5 1009.5 600 1016.7 582.1 1023.8 564.3 1033.3 544 1042.9 520.2 1042.9 520.2 1044 519 1044 517.9V516.7C1044 516.7 1044 516.7 1044 516.7 1044 516.7 1044 516.7 1044 515.5L1044 515.5V516.7C1044 515.5 1045.2 514.3 1045.2 514.3 1045.2 514.3 1045.2 514.3 1045.2 515.5 1048.8 510.7 1050 510.7 1050 510.7ZM1019 625L1019 625C1020.2 625 1020.2 625 1019 625 1019 626.2 1019 626.2 1019 626.2 1019 626.2 1019 626.2 1019 627.4L1019 628.6C1017.9 632.1 1019 634.5 1021.4 634.5 1023.8 635.7 1029.8 634.5 1040.5 633.3 1051.2 631 1060.7 627.4 1071.4 622.6 1081 617.9 1091.7 611.9 1102.4 603.6 1125 586.9 1139.3 571.4 1146.4 554.8L1147.6 548.8C1147.6 540.5 1145.2 535.7 1139.3 535.7 1133.3 535.7 1115.5 545.2 1086.9 564.3 1075 572.6 1064.3 579.8 1056 585.7 1047.6 591.7 1040.5 597.6 1033.3 602.4 1026.2 608.3 1021.4 615.5 1019 625ZM1502.4 284.5C1503.6 279.8 1504.8 276.2 1504.8 271.4 1507.1 242.9 1495.2 217.9 1469 195.2 1441.7 172.6 1409.5 161.9 1371.4 163.1 1306 165.5 1239.3 214.3 1172.6 309.5 1131 367.9 1095.2 433.3 1064.3 506 1163.1 485.7 1251.2 458.3 1327.4 425 1419 384.5 1475 341.7 1497.6 296.4 1500 292.9 1501.2 288.1 1502.4 284.5ZM1333.3 529.8C1327.4 534.5 1320.2 536.9 1313.1 538.1 1308.3 539.3 1301.2 539.3 1292.9 539.3 1283.3 539.3 1273.8 539.3 1263.1 540.5 1252.4 540.5 1241.7 540.5 1231 540.5 1220.2 540.5 1210.7 540.5 1202.4 540.5 1200 544 1196.4 548.8 1192.9 553.6 1189.3 558.3 1186.9 564.3 1183.3 569 1179.8 575 1177.4 581 1176.2 586.9 1173.8 592.9 1172.6 598.8 1172.6 606 1172.6 611.9 1172.6 616.7 1175 620.2 1176.2 623.8 1178.6 627.4 1181 628.6 1183.3 631 1186.9 632.1 1189.3 632.1 1192.9 633.3 1196.4 633.3 1200 633.3 1208.3 632.1 1217.9 629.8 1228.6 626.2 1239.3 622.6 1247.6 619 1254.8 614.3 1257.1 613.1 1258.3 613.1 1259.5 613.1 1260.7 614.3 1259.5 615.5 1258.3 616.7 1256 619 1252.4 621.4 1247.6 623.8 1244 626.2 1239.3 628.6 1234.5 631 1229.8 633.3 1225 635.7 1219 638.1 1214.3 640.5 1208.3 641.7 1203.6 642.9 1200 644 1195.2 642.9 1190.5 641.7 1185.7 640.5 1181 636.9 1177.4 633.3 1173.8 629.8 1170.2 626.2 1167.9 621.4 1165.5 616.7 1164.3 611.9 1164.3 606 1165.5 591.7 1169 576.2 1176.2 561.9 1183.3 547.6 1192.9 533.3 1203.6 520.2 1214.3 507.1 1225 496.4 1236.9 486.9 1248.8 477.4 1259.5 471.4 1269 467.9 1273.8 466.7 1278.6 466.7 1283.3 469 1286.9 471.4 1290.5 473.8 1292.9 477.4 1295.2 481 1296.4 485.7 1296.4 490.5 1296.4 495.2 1295.2 500 1292.9 503.6 1289.3 510.7 1281 517.9 1271.4 522.6 1260.7 527.4 1248.8 531 1235.7 533.3 1242.9 533.3 1250 533.3 1258.3 533.3 1266.7 533.3 1273.8 533.3 1281 533.3 1288.1 533.3 1294 533.3 1300 532.1 1306 532.1 1310.7 531 1315.5 531 1321.4 531 1327.4 528.6 1332.1 526.2 1338.1 522.6 1342.9 520.2 1345.2 517.9 1346.4 515.5 1347.6 515.5 1348.8 515.5 1350 515.5 1350 516.7 1347.6 519 1342.9 522.6 1339.3 526.2 1333.3 529.8ZM1285.7 489.3C1285.7 485.7 1285.7 483.3 1283.3 482.1 1282.1 481 1279.8 479.8 1276.2 479.8 1272.6 479.8 1269 481 1265.5 483.3 1256 489.3 1245.2 496.4 1235.7 506 1225 515.5 1215.5 525 1207.1 534.5 1214.3 534.5 1221.4 533.3 1228.6 532.1 1235.7 531 1242.9 528.6 1250 525 1257.1 521.4 1263.1 517.9 1267.9 514.3 1273.8 510.7 1277.4 506 1281 501.2 1283.3 496.4 1284.5 492.9 1285.7 489.3ZM1263.1 648.8C1263.1 647.6 1263.1 646.4 1263.1 645.2 1289.3 604.8 1307.1 573.8 1316.7 552.4 1317.9 548.8 1319 545.2 1319 542.9 1319 542.9 1319 540.5 1317.9 538.1 1317.9 536.9 1317.9 535.7 1317.9 535.7 1321.4 534.5 1331 528.6 1347.6 519 1347.6 519 1348.8 517.9 1348.8 517.9 1350 517.9 1351.2 519 1352.4 520.2 1353.6 521.4 1353.6 523.8 1352.4 525 1344 536.9 1336.9 547.6 1331 556 1325 564.3 1320.2 572.6 1317.9 578.6 1316.7 579.8 1316.7 581 1316.7 582.1 1316.7 583.3 1317.9 583.3 1321.4 582.1 1323.8 581 1325 579.8 1326.2 578.6 1336.9 565.5 1350 552.4 1366.7 539.3 1384.5 525 1397.6 516.7 1407.1 511.9 1415.5 511.9 1421.4 511.9 1426.2 514.3 1426.2 514.3 1426.2 514.3 1426.2 515.5 1426.2 516.7 1426.2 517.9 1425 519 1423.8 520.2 1422.6 521.4 1421.4 522.6 1420.2 523.8 1419 525 1417.9 525 1416.7 526.2 1415.5 526.2 1414.3 525 1408.3 522.6 1401.2 523.8 1392.9 528.6 1353.6 551.2 1317.9 586.9 1285.7 638.1 1285.7 639.3 1284.5 639.3 1282.1 640.5 1279.8 641.7 1277.4 642.9 1275 644 1272.6 645.2 1269 646.4 1265.5 648.8 1264.3 651.2 1263.1 651.2 1263.1 648.8ZM1561.9 529.8C1556 534.5 1548.8 536.9 1541.7 538.1 1536.9 539.3 1529.8 539.3 1521.4 539.3 1511.9 539.3 1502.4 539.3 1491.7 540.5 1481 540.5 1470.2 540.5 1459.5 540.5 1448.8 540.5 1439.3 540.5 1431 540.5 1427.4 544 1425 548.8 1421.4 553.6 1417.9 558.3 1415.5 564.3 1411.9 569 1408.3 575 1406 581 1404.8 586.9 1402.4 592.9 1401.2 598.8 1401.2 606 1401.2 611.9 1401.2 616.7 1403.6 620.2 1404.8 623.8 1407.1 627.4 1409.5 628.6 1411.9 631 1415.5 632.1 1417.9 632.1 1421.4 633.3 1425 633.3 1428.6 633.3 1436.9 632.1 1446.4 629.8 1457.1 626.2 1466.7 622.6 1476.2 619 1483.3 614.3 1485.7 613.1 1486.9 613.1 1488.1 613.1 1489.3 614.3 1488.1 615.5 1486.9 616.7 1484.5 619 1481 621.4 1476.2 623.8 1472.6 626.2 1467.9 628.6 1463.1 631 1458.3 633.3 1453.6 635.7 1447.6 638.1 1442.9 640.5 1436.9 641.7 1432.1 642.9 1428.6 644 1423.8 642.9 1419 641.7 1414.3 640.5 1409.5 636.9 1406 633.3 1402.4 629.8 1398.8 626.2 1395.2 621.4 1392.9 616.7 1391.7 611.9 1391.7 606 1392.9 591.7 1396.4 576.2 1403.6 561.9 1410.7 547.6 1420.2 533.3 1431 520.2 1441.7 507.1 1452.4 496.4 1464.3 486.9 1476.2 477.4 1486.9 471.4 1496.4 467.9 1501.2 466.7 1506 466.7 1510.7 469 1514.3 471.4 1517.9 473.8 1520.2 477.4 1522.6 481 1523.8 485.7 1523.8 490.5 1523.8 495.2 1522.6 500 1520.2 503.6 1516.7 510.7 1508.3 517.9 1498.8 522.6 1488.1 527.4 1476.2 531 1463.1 533.3 1470.2 533.3 1477.4 533.3 1485.7 533.3 1494 533.3 1501.2 533.3 1508.3 533.3 1515.5 533.3 1521.4 533.3 1527.4 532.1 1533.3 532.1 1538.1 531 1542.9 531 1548.8 531 1554.8 528.6 1559.5 526.2 1565.5 522.6 1570.2 520.2 1572.6 517.9 1573.8 515.5 1575 515.5 1576.2 515.5 1577.4 515.5 1577.4 516.7 1575 519 1572.6 522.6 1567.9 526.2 1561.9 529.8ZM1514.3 489.3C1514.3 485.7 1514.3 483.3 1511.9 482.1 1510.7 481 1508.3 479.8 1504.8 479.8 1501.2 479.8 1497.6 481 1494 483.3 1484.5 489.3 1473.8 496.4 1464.3 506 1453.6 515.5 1444 525 1435.7 534.5 1442.9 534.5 1450 533.3 1457.1 532.1 1464.3 531 1471.4 528.6 1478.6 525 1485.7 521.4 1491.7 517.9 1496.4 514.3 1502.4 510.7 1506 506 1509.5 501.2 1513.1 496.4 1514.3 492.9 1514.3 489.3ZM1471.4 844C1464.3 835.7 1459.5 827.4 1457.1 817.9 1454.8 808.3 1454.8 797.6 1454.8 785.7 1454.8 747.6 1470.2 692.9 1501.2 622.6 1515.5 591.7 1528.6 563.1 1542.9 538.1 1557.1 513.1 1570.2 490.5 1584.5 470.2 1588.1 466.7 1589.3 463.1 1589.3 458.3 1589.3 453.6 1586.9 450 1582.1 446.4 1572.6 442.9 1569 438.1 1570.2 433.3 1571.4 432.1 1575 431 1582.1 429.8 1589.3 428.6 1598.8 428.6 1611.9 428.6 1613.1 428.6 1613.1 428.6 1611.9 427.4 1610.7 426.2 1610.7 426.2 1611.9 425 1625 404.8 1639.3 384.5 1657.1 364.3 1673.8 344 1691.7 323.8 1710.7 302.4 1711.9 300 1720.2 296.4 1733.3 291.7 1739.3 289.3 1744 288.1 1747.6 286.9 1750 285.7 1753.6 284.5 1757.1 284.5 1759.5 284.5 1761.9 285.7 1761.9 288.1 1761.9 289.3 1760.7 290.5 1758.3 290.5 1733.3 295.2 1691.7 338.1 1632.1 419 1627.4 425 1628.6 428.6 1634.5 428.6H1692.9C1708.3 428.6 1721.4 428.6 1729.8 428.6 1738.1 428.6 1744 428.6 1746.4 428.6 1748.8 428.6 1750 428.6 1751.2 429.8 1751.2 429.8 1750 432.1 1748.8 434.5 1747.6 436.9 1745.2 438.1 1742.9 438.1 1727.4 438.1 1709.5 439.3 1690.5 440.5 1670.2 441.7 1647.6 442.9 1622.6 444 1617.9 445.2 1614.3 446.4 1611.9 450 1597.6 471.4 1584.5 491.7 1571.4 513.1 1558.3 533.3 1546.4 556 1534.5 581 1515.5 619 1501.2 654.8 1490.5 685.7 1479.8 716.7 1472.6 745.2 1471.4 770.2 1471.4 773.8 1471.4 777.4 1471.4 779.8 1471.4 783.3 1471.4 785.7 1471.4 789.3 1471.4 835.7 1488.1 859.5 1521.4 859.5 1531 859.5 1541.7 858.3 1552.4 854.8 1569 848.8 1585.7 840.5 1602.4 829.8 1619 817.9 1635.7 803.6 1653.6 784.5 1671.4 765.5 1684.5 748.8 1694 732.1 1703.6 715.5 1709.5 701.2 1711.9 685.7 1711.9 660.7 1702.4 648.8 1684.5 652.4 1681 652.4 1677.4 653.6 1673.8 656 1671.4 658.3 1669 658.3 1667.9 658.3 1665.5 658.3 1664.3 657.1 1664.3 654.8 1665.5 652.4 1667.9 651.2 1670.2 648.8 1672.6 647.6 1677.4 645.2 1684.5 641.7 1685.7 641.7 1686.9 641.7 1689.3 641.7 1697.6 641.7 1706 647.6 1714.3 659.5 1722.6 671.4 1726.2 681 1726.2 686.9 1720.2 722.6 1695.2 760.7 1648.8 802.4 1625 823.8 1603.6 839.3 1583.3 850 1563.1 860.7 1544 866.7 1526.2 866.7 1502.4 869 1484.5 860.7 1471.4 844ZM1736.9 529.8C1731 534.5 1723.8 536.9 1716.7 538.1 1711.9 539.3 1704.8 539.3 1696.4 539.3 1686.9 539.3 1677.4 539.3 1666.7 540.5 1656 540.5 1645.2 540.5 1634.5 540.5 1623.8 540.5 1614.3 540.5 1606 540.5 1603.6 544 1600 548.8 1596.4 553.6 1592.9 558.3 1589.3 564.3 1586.9 569 1583.3 575 1581 581 1579.8 586.9 1577.4 592.9 1576.2 598.8 1576.2 606 1576.2 611.9 1576.2 616.7 1578.6 620.2 1579.8 623.8 1582.1 627.4 1584.5 628.6 1586.9 631 1590.5 632.1 1592.9 632.1 1596.4 633.3 1600 633.3 1603.6 633.3 1611.9 632.1 1621.4 629.8 1632.1 626.2 1641.7 622.6 1651.2 619 1658.3 614.3 1660.7 613.1 1661.9 613.1 1663.1 613.1 1664.3 614.3 1663.1 615.5 1661.9 616.7 1659.5 619 1656 621.4 1651.2 623.8 1647.6 626.2 1642.9 628.6 1638.1 631 1633.3 633.3 1628.6 635.7 1622.6 638.1 1617.9 640.5 1611.9 641.7 1607.1 642.9 1603.6 644 1598.8 642.9 1594 641.7 1589.3 640.5 1584.5 636.9 1581 633.3 1577.4 629.8 1573.8 626.2 1571.4 621.4 1569 616.7 1567.9 611.9 1567.9 606 1569 591.7 1572.6 576.2 1579.8 561.9 1586.9 547.6 1596.4 533.3 1607.1 520.2 1617.9 507.1 1628.6 496.4 1640.5 486.9S1663.1 471.4 1672.6 467.9C1677.4 466.7 1682.1 466.7 1686.9 469 1690.5 471.4 1694 473.8 1696.4 477.4 1698.8 481 1700 485.7 1700 490.5 1700 495.2 1698.8 500 1696.4 503.6 1692.9 510.7 1684.5 517.9 1675 522.6 1664.3 527.4 1652.4 531 1639.3 533.3 1646.4 533.3 1653.6 533.3 1661.9 533.3 1670.2 533.3 1677.4 533.3 1684.5 533.3 1691.7 533.3 1697.6 533.3 1703.6 532.1 1709.5 532.1 1714.3 531 1719 531 1725 531 1731 528.6 1735.7 526.2 1741.7 522.6 1746.4 520.2 1748.8 517.9 1750 515.5 1751.2 515.5 1752.4 515.5 1753.6 515.5 1753.6 516.7 1751.2 519 1747.6 522.6 1744 526.2 1736.9 529.8ZM1690.5 489.3C1690.5 485.7 1690.5 483.3 1688.1 482.1 1686.9 481 1684.5 479.8 1681 479.8 1677.4 479.8 1673.8 481 1670.2 483.3 1660.7 489.3 1650 496.4 1640.5 506 1629.8 515.5 1620.2 525 1611.9 534.5 1619 534.5 1626.2 533.3 1633.3 532.1 1640.5 531 1647.6 528.6 1654.8 525 1661.9 521.4 1667.9 517.9 1672.6 514.3 1678.6 510.7 1682.1 506 1685.7 501.2 1688.1 496.4 1689.3 492.9 1690.5 489.3ZM1970.2 573.8C1990.5 567.9 2010.7 561.9 2031 558.3L2031 558.3C2011.9 561.9 1992.9 567.9 1972.6 576.2 1952.4 584.5 1932.1 594 1910.7 607.1 1914.3 611.9 1916.7 615.5 1917.9 619 1919 622.6 1920.2 625 1920.2 626.2 1920.2 633.3 1911.9 641.7 1894 648.8 1878.6 656 1866.7 658.3 1857.1 658.3 1853.6 658.3 1851.2 658.3 1848.8 657.1 1845.2 657.1 1841.7 658.3 1839.3 658.3 1836.9 658.3 1835.7 658.3 1833.3 658.3 1829.8 658.3 1828.6 656 1831 653.6 1835.7 647.6 1853.6 634.5 1885.7 611.9L1872.6 594C1869 590.5 1867.9 586.9 1865.5 583.3 1864.3 579.8 1863.1 576.2 1861.9 572.6 1859.5 554.8 1878.6 534.5 1916.7 511.9 1935.7 500 1954.8 491.7 1971.4 485.7 1988.1 479.8 2004.8 477.4 2020.2 477.4 2021.4 477.4 2023.8 478.6 2025 479.8 2026.2 482.1 2026.2 484.5 2025 484.5 2022.6 486.9 2020.2 490.5 2015.5 492.9 2010.7 495.2 2008.3 496.4 2006 496.4 2000 494 1994 492.9 1990.5 491.7 1985.7 490.5 1982.1 490.5 1979.8 490.5 1978.6 490.5 1976.2 490.5 1975 490.5 1973.8 490.5 1972.6 490.5 1970.2 491.7 1954.8 495.2 1936.9 504.8 1916.7 519 1890.5 536.9 1879.8 552.4 1881 565.5 1882.1 571.4 1884.5 577.4 1889.3 585.7 1895.2 594 1900 598.8 1903.6 601.2 1929.8 589.3 1950 579.8 1970.2 573.8ZM1854.8 653.6C1859.5 654.8 1867.9 653.6 1879.8 648.8 1885.7 646.4 1889.3 645.2 1892.9 642.9 1896.4 641.7 1898.8 639.3 1900 636.9 1901.2 635.7 1901.2 634.5 1901.2 632.1 1901.2 627.4 1897.6 622.6 1891.7 616.7 1886.9 619 1881 623.8 1871.4 631 1865.5 634.5 1861.9 638.1 1858.3 640.5 1854.8 642.9 1852.4 645.2 1851.2 647.6 1851.2 652.4 1852.4 653.6 1854.8 653.6ZM2096.4 603.6C2089.3 608.3 2082.1 614.3 2075 619 2066.7 625 2059.5 629.8 2051.2 634.5 2042.9 639.3 2035.7 642.9 2029.8 646.4 2028.6 646.4 2026.2 646.4 2022.6 646.4 2019 646.4 2015.5 644 2013.1 642.9 2009.5 640.5 2007.1 638.1 2004.8 634.5 2002.4 631 2001.2 627.4 2001.2 622.6 2001.2 617.9 2002.4 613.1 2004.8 606 2007.1 598.8 2009.5 591.7 2013.1 584.5 2016.7 577.4 2020.2 569 2023.8 560.7 2027.4 552.4 2031 545.2 2034.5 539.3 2038.1 532.1 2040.5 527.4 2042.9 522.6 2045.2 517.9 2046.4 515.5 2046.4 514.3 2046.4 510.7 2048.8 508.3 2051.2 507.1 2053.6 506 2056 506 2058.3 506 2060.7 507.1 2063.1 508.3 2063.1 511.9 2064.3 515.5 2063.1 519 2060.7 523.8 2051.2 540.5 2044 554.8 2039.3 563.1 2034.5 572.6 2031 579.8 2028.6 583.3 2026.2 588.1 2025 590.5 2025 591.7 2025 592.9 2023.8 594 2023.8 594 2023.8 595.2 2022.6 596.4 2021.4 598.8 2020.2 601.2 2017.9 606 2015.5 611.9 2011.9 619 2010.7 623.8 2010.7 627.4 2010.7 631 2011.9 633.3 2013.1 635.7 2015.5 636.9 2017.9 638.1 2020.2 638.1 2022.6 638.1 2026.2 638.1 2028.6 636.9 2033.3 635.7 2040.5 633.3 2047.6 629.8 2054.8 626.2 2063.1 621.4 2071.4 615.5 2079.8 610.7 2086.9 604.8 2094 600 2101.2 595.2 2106 590.5 2110.7 586.9 2113.1 584.5 2115.5 583.3 2115.5 583.3 2116.7 583.3 2116.7 583.3 2117.9 584.5 2117.9 585.7 2117.9 586.9 2116.7 588.1 2115.5 589.3 2114.3 591.7 2113.1 592.9 2107.1 595.2 2102.4 598.8 2096.4 603.6ZM2073.8 482.1C2067.9 488.1 2063.1 490.5 2058.3 489.3 2052.4 488.1 2050 485.7 2050 482.1 2050 478.6 2053.6 473.8 2059.5 466.7 2065.5 460.7 2070.2 457.1 2075 456 2077.4 456 2081 456 2083.3 458.3 2085.7 460.7 2086.9 463.1 2085.7 465.5 2084.5 471.4 2081 476.2 2073.8 482.1ZM2152.4 641.7C2148.8 642.9 2144 644 2140.5 644 2139.3 644 2138.1 642.9 2136.9 641.7 2135.7 640.5 2135.7 636.9 2134.5 631 2133.3 623.8 2133.3 620.2 2134.5 619 2134.5 617.9 2135.7 617.9 2136.9 616.7 2138.1 615.5 2140.5 614.3 2141.7 614.3 2144 613.1 2145.2 613.1 2147.6 611.9 2150 611.9 2151.2 610.7 2152.4 610.7 2152.4 610.7 2153.6 610.7 2154.8 611.9 2157.1 614.3 2158.3 622.6 2158.3 636.9 2158.3 638.1 2157.1 640.5 2152.4 641.7ZM392.9 584.5C370.2 571.4 357.1 528.6 356 516.7L356 516.7C356 515.5 356 515.5 356 515.5L356 515.5C356 501.2 366.7 440.5 376.2 378.6L376.2 378.6C378.6 366.7 378.6 356 378.6 346.4L378.6 346.4C378.6 307.1 364.3 290.5 359.5 271.4L359.5 271.4C358.3 265.5 358.3 259.5 358.3 253.6L358.3 253.6C358.3 235.7 361.9 215.5 363.1 208.3L363.1 208.3 2.4 7.1C0 6 0 3.6 0 2.4L0 2.4C1.2 0 3.6 0 4.8 0L4.8 0C4.8 0 96.4 35.7 191.7 71.4L191.7 71.4C286.9 107.1 386.9 142.9 397.6 142.9L397.6 142.9C397.6 142.9 397.6 142.9 397.6 142.9L397.6 142.9C407.1 140.5 415.5 131 415.5 119L415.5 119C415.5 117.9 415.5 116.7 415.5 115.5L415.5 115.5C415.5 110.7 406 98.8 396.4 90.5L396.4 90.5C386.9 82.1 378.6 75 378.6 75L378.6 75C377.4 73.8 377.4 72.6 377.4 71.4L377.4 71.4C377.4 70.2 378.6 69 379.8 67.9L379.8 67.9C379.8 67.9 400 58.3 431 58.3L431 58.3C433.3 58.3 435.7 58.3 436.9 58.3L436.9 58.3C466.7 59.5 496.4 78.6 504.8 84.5L504.8 84.5C513.1 78.6 547.6 60.7 598.8 60.7L598.8 60.7C613.1 60.7 629.8 61.9 647.6 65.5L647.6 65.5C713.1 78.6 794 113.1 856 184.5L856 184.5C933.3 273.8 956 358.3 956 358.3L956 358.3H956C956 360.7 954.8 363.1 953.6 363.1L953.6 363.1C951.2 363.1 948.8 361.9 948.8 360.7L948.8 360.7C948.8 360.7 927.4 278.6 850 190.5L850 190.5C789.3 121.4 710.7 88.1 645.2 73.8L645.2 73.8C628.6 70.2 613.1 69 598.8 69L598.8 69C540.5 69 506 92.9 506 92.9L506 92.9C504.8 94 502.4 94 501.2 92.9L501.2 92.9C501.2 92.9 467.9 67.9 435.7 66.7L435.7 66.7C433.3 66.7 432.1 66.7 429.8 66.7L429.8 66.7C410.7 66.7 395.2 70.2 388.1 73.8L388.1 73.8C398.8 82.1 420.2 101.2 422.6 115.5L422.6 115.5C422.6 116.7 422.6 119 422.6 120.2L422.6 120.2C422.6 135.7 413.1 148.8 398.8 151.2L398.8 151.2C398.8 151.2 397.6 151.2 397.6 151.2L397.6 151.2C375 151.2 154.8 66.7 53.6 27.4L53.6 27.4 369 203.6C370.2 204.8 371.4 206 371.4 208.3L371.4 208.3C371.4 208.3 366.7 233.3 366.7 254.8L366.7 254.8C366.7 260.7 366.7 266.7 367.9 271.4L367.9 271.4C371.4 288.1 386.9 307.1 386.9 348.8L386.9 348.8C386.9 358.3 385.7 369 384.5 382.1L384.5 382.1C373.8 444 364.3 504.8 364.3 517.9L364.3 517.9C364.3 517.9 364.3 519 364.3 519L364.3 519C364.3 528.6 379.8 571.4 397.6 581L397.6 581C409.5 586.9 420.2 589.3 429.8 589.3L429.8 589.3C469 589.3 500 548.8 510.7 526.2L510.7 526.2C525 496.4 564.3 446.4 582.1 422.6L582.1 422.6C598.8 400 623.8 361.9 623.8 323.8L623.8 323.8C623.8 321.4 623.8 320.2 623.8 317.9L623.8 317.9C617.9 229.8 545.2 225 527.4 225L527.4 225C525 225 523.8 225 523.8 225L523.8 225C521.4 225 520.2 223.8 519 221.4L519 221.4C519 219 520.2 217.9 522.6 216.7L522.6 216.7C522.6 216.7 523.8 216.7 527.4 216.7L527.4 216.7C546.4 216.7 625 222.6 632.1 316.7L632.1 316.7C632.1 319 632.1 320.2 632.1 322.6L632.1 322.6C632.1 363.1 606 403.6 588.1 426.2L588.1 426.2C570.2 450 531 500 517.9 527.4L517.9 527.4C507.1 551.2 475 594 429.8 595.2L429.8 595.2C416.7 594 404.8 591.7 392.9 584.5L392.9 584.5Z",
        "width": 2158
      },
      "search": [
        "vybertesi"
      ]
    },
    {
      "uid": "304a07766b2bd8c41c57fde8def83c2a",
      "css": "cr",
      "code": 59408,
      "src": "custom_icons",
      "selected": true,
      "svg": {
        "path": "M650.4 65C653.1 62.3 655.8 59.6 655.8 56.9 655.8 54.2 655.8 54.2 655.8 51.5 655.8 48.8 655.8 48.8 653.1 48.8 650.4 48.8 647.7 48.8 645 51.5 642.3 54.2 639.6 54.2 636.9 54.2 634.1 54.2 631.4 56.9 628.7 56.9 626 54.2 628.7 51.5 628.7 48.8 631.4 43.4 636.9 37.9 636.9 32.5 636.9 29.8 636.9 27.1 634.1 24.4 631.4 21.7 628.7 21.7 626 19 623.3 19 620.6 19 620.6 16.3 623.3 16.3 623.3 13.6 620.6 13.6 617.9 13.6 617.9 13.6 617.9 8.1 617.9 5.4 620.6 2.7 615.2 2.7 612.5 2.7 612.5 5.4 609.8 8.1 607 10.8 607 8.1 604.3 8.1 598.9 8.1 596.2 16.3 590.8 13.6 590.8 10.8 588.1 8.1 588.1 8.1 588.1 8.1 585.4 8.1 585.4 5.4 585.4 5.4 582.7 2.7 582.7 2.7 582.7 2.7 579.9 0 579.9 0 577.2 0 577.2 0 577.2 2.7 574.5 5.4 574.5 2.7 571.8 0 569.1 0 566.4 0 563.7 0 561 2.7 561 5.4 561 8.1 561 10.8 561 13.6 558.3 16.3 558.3 19 555.6 19 555.6 21.7 555.6 24.4 555.6 27.1 555.6 27.1 555.6 29.8 558.3 29.8 561 29.8 563.7 29.8 566.4 29.8 566.4 29.8 569.1 29.8 571.8 29.8 569.1 32.5 569.1 35.2 566.4 35.2 569.1 37.9 569.1 40.7 574.5 40.7 574.5 40.7 577.2 40.7 577.2 43.4 579.9 43.4 582.7 43.4 585.4 43.4 588.1 43.4 588.1 43.4 588.1 46.1 588.1 48.8 588.1 48.8 585.4 51.5 585.4 51.5 585.4 51.5 585.4 54.2 585.4 54.2 585.4 54.2 585.4 56.9 585.4 59.6 585.4 62.3 577.2 62.3 577.2 62.3 574.5 62.3 571.8 65 569.1 65 566.4 65 563.7 67.8 561 65 558.3 62.3 558.3 62.3 555.6 62.3 552.8 62.3 550.1 65 550.1 67.8 550.1 67.8 550.1 73.2 550.1 75.9 550.1 75.9 550.1 78.6 547.4 78.6 544.7 81.3 536.6 84 533.9 84 528.5 84 523 89.4 517.6 92.1 514.9 92.1 512.2 94.9 509.5 94.9 506.8 97.6 504.1 97.6 501.4 100.3 495.9 103 493.2 97.6 487.8 94.9 485.1 92.1 482.4 94.9 479.7 97.6 477 97.6 477 100.3 477 103 477 105.7 474.3 108.4 471.5 108.4 468.8 108.4 466.1 105.7 463.4 108.4 460.7 108.4 460.7 113.8 460.7 113.8 460.7 116.5 460.7 116.5 463.4 122 463.4 122 466.1 130.1 463.4 130.1 463.4 130.1 460.7 127.4 460.7 127.4 460.7 127.4 458 127.4 458 127.4 455.3 127.4 455.3 132.8 455.3 132.8 452.6 135.5 449.9 132.8 449.9 132.8 447.2 130.1 441.7 127.4 439 130.1 436.3 130.1 436.3 130.1 433.6 132.8 430.9 132.8 430.9 135.5 428.2 135.5 428.2 135.5 428.2 132.8 425.5 132.8 422.8 132.8 422.8 132.8 420.1 135.5 417.3 138.2 417.3 140.9 414.6 140.9 411.9 140.9 411.9 135.5 409.2 135.5 406.5 132.8 403.8 135.5 401.1 138.2 398.4 140.9 398.4 143.6 395.7 143.6 393 143.6 390.2 143.6 387.5 143.6 384.8 143.6 382.1 143.6 379.4 143.6 376.7 143.6 374 146.3 374 146.3 371.3 149.1 374 151.8 376.7 154.5 379.4 157.2 379.4 159.9 376.7 162.6 374 165.3 374 165.3 371.3 168 368.6 170.7 368.6 170.7 371.3 176.2 371.3 178.9 368.6 184.3 365.9 187 363.1 189.7 363.1 189.7 360.4 192.4 360.4 192.4 357.7 195.1 357.7 195.1 355 195.1 355 195.1 355 195.1 349.6 192.4 344.2 187 341.5 181.6 341.5 178.9 338.8 176.2 336 176.2 333.3 176.2 333.3 181.6 333.3 181.6 333.3 184.3 333.3 187 330.6 189.7 327.9 189.7 325.2 192.4 325.2 195.1 325.2 195.1 322.5 197.8 322.5 197.8 322.5 197.8 322.5 200.5 322.5 203.3 322.5 206 317.1 208.7 314.4 206 303.5 195.1 303.5 189.7 298.1 189.7 292.7 189.7 292.7 195.1 292.7 197.8 292.7 200.5 290 203.3 290 206 290 208.7 290 211.4 287.3 214.1 284.6 216.8 284.6 219.5 284.6 222.2 284.6 224.9 281.8 227.6 276.4 224.9 276.4 224.9 273.7 222.2 273.7 222.2 271 222.2 271 222.2 268.3 219.5 268.3 219.5 265.6 216.8 262.9 219.5 260.2 222.2 260.2 224.9 257.5 224.9 254.7 224.9 252 224.9 249.3 224.9 243.9 222.2 243.9 219.5 241.2 222.2 235.8 222.2 238.5 233.1 238.5 238.5 238.5 243.9 238.5 249.3 233.1 254.7 230.4 254.7 227.6 257.5 227.6 257.5 224.9 260.2 222.2 260.2 219.5 260.2 216.8 260.2 211.4 257.5 211.4 254.7 208.7 254.7 206 252 203.3 249.3 200.5 246.6 197.8 249.3 195.1 246.6 195.1 246.6 189.7 243.9 187 243.9 187 243.9 184.3 241.2 184.3 241.2 181.6 241.2 181.6 241.2 181.6 243.9 181.6 246.6 181.6 252 178.9 252 178.9 252 176.2 249.3 176.2 249.3 173.4 249.3 173.4 249.3 170.7 249.3 168 249.3 165.3 252 162.6 254.7 162.6 257.5 162.6 257.5 159.9 260.2 159.9 262.9 157.2 265.6 154.5 265.6 151.8 265.6 149.1 262.9 149.1 260.2 146.3 257.5 146.3 260.2 140.9 260.2 138.2 260.2 135.5 257.5 132.8 257.5 132.8 257.5 130.1 257.5 130.1 260.2 127.4 260.2 127.4 260.2 127.4 260.2 124.7 260.2 122 262.9 119.2 262.9 116.5 262.9 113.8 262.9 111.1 262.9 108.4 265.6 108.4 271 105.7 271 105.7 273.7 103 276.4 103 279.1 103 281.8 105.7 284.6 105.7 287.3 105.7 290 103 290 100.3 287.3 97.6 287.3 97.6 287.3 97.6 287.3 94.9 287.3 94.9 287.3 92.1 290 89.4 292.7 92.1 295.4 89.4 295.4 84 298.1 81.3 295.4 78.6 298.1 78.6 298.1 78.6 300.8 78.6 300.8 78.6 303.5 78.6 303.5 75.9 306.2 75.9 308.9 70.5 311.7 70.5 314.4 67.8 317.1 65 325.2 65 327.9 65 330.6 65 330.6 65 333.3 65 336 62.3 336 59.6 336 59.6 336 59.6 338.8 59.6 341.5 59.6 344.2 56.9 344.2 59.6 346.9 59.6 346.9 59.6 346.9 59.6 346.9 59.6 352.3 65 357.7 59.6 360.4 56.9 363.1 54.2 360.4 51.5 357.7 48.8 355 48.8 355 48.8 352.3 48.8 349.6 48.8 346.9 48.8 344.2 48.8 341.5 51.5 338.8 48.8 336 48.8 333.3 46.1 333.3 43.4 330.6 40.7 327.9 37.9 327.9 40.7 325.2 40.7 322.5 43.4 319.8 37.9 319.8 35.2 319.8 32.5 319.8 29.8 319.8 24.4 317.1 29.8 308.9 27.1 303.5 27.1 298.1 24.4 298.1 21.7 298.1 19 298.1 16.3 298.1 13.6 298.1 10.8 298.1 8.1 298.1 5.4 300.8 0 303.5 2.7 303.5 5.4 306.2 5.4 308.9 8.1 311.7 8.1 314.4 8.1 317.1 10.8 319.8 8.1 322.5 5.4 325.2 2.7 322.5 0 325.2 0 327.9 0 330.6 0 333.3 0 338.8 8.1 338.8 10.8 341.5 13.6 344.2 19 349.6 21.7 355 21.7 357.7 24.4 360.4 24.4 363.1 24.4 365.9 21.7 368.6 21.7 371.3 21.7 376.7 16.3 382.1 21.7 387.5 21.7 390.2 27.1 390.2 27.1 393 29.8 395.7 32.5 393 35.2 395.7 37.9 395.7 37.9 401.1 37.9 401.1 37.9 403.8 35.2 406.5 40.7 406.5 43.4 406.5 48.8 406.5 51.5 409.2 51.5 409.2 51.5 411.9 54.2 414.6 54.2 417.3 56.9 417.3 59.6 417.3 62.3 417.3 65 417.3 65 420.1 67.8 420.1 67.8 422.8 67.8 422.8 70.5 425.5 73.2 425.5 75.9 428.2 78.6 430.9 78.6 436.3 81.3 436.3 84 436.3 84 433.6 86.7 433.6 89.4 430.9 89.4 430.9 89.4 433.6 92.1 436.3 97.6 436.3 94.9 441.7 92.1 444.4 89.4 449.9 89.4 452.6 92.1 452.6 94.9 455.3 100.3 458 103 458 105.7 458 105.7 460.7 108.4 463.4 105.7 463.4 105.7 466.1 105.7 468.8 105.7 474.3 103 477 100.3 479.7 100.3 479.7 100.3 482.4 100.3 485.1 100.3 485.1 97.6 487.8 94.9 490.5 94.9 493.2 94.9 495.9 92.1 498.6 92.1 501.4 92.1 504.1 92.1 506.8 92.1 512.2 89.4 514.9 89.4 520.3 84 520.3 81.3 520.3 78.6 523 75.9 523 73.2 525.7 70.5 528.5 73.2 531.2 75.9 536.6 75.9 539.3 78.6 533.9 78.6 536.6 78.6 539.3 78.6 539.3 81.3 542 81.3 542 89.4 547.4 92.1 547.4 94.9 547.4 94.9 547.4 97.6 550.1 100.3 550.1 97.6 552.8 100.3 552.8 105.7 552.8 108.4 550.1 108.4 555.6 108.4 558.3 105.7 563.7 105.7 566.4 105.7 569.1 111.1 574.5 113.8 577.2 116.5 579.9 116.5 577.2 119.2 577.2 122 577.2 122 582.7 122 582.7 122 585.4 122 588.1 122 590.8 122 593.5 122 596.2 122 598.9 122 604.3 122 607 124.7 609.8 127.4 612.5 132.8 609.8 135.5 612.5 135.5 615.2 135.5 617.9 135.5 617.9 135.5 620.6 135.5 623.3 135.5 628.7 135.5 631.4 135.5 631.4 135.5 634.1 135.5 636.9 135.5 636.9 135.5 639.6 138.2 642.3 138.2 645 138.2 650.4 138.2 653.1 140.9 655.8 146.3 658.5 149.1 658.5 151.8 658.5 154.5 661.2 157.2 661.2 162.6 664 162.6 666.7 165.3 669.4 165.3 674.8 165.3 677.5 165.3 680.2 165.3 680.2 168 682.9 168 685.6 168 685.6 168 688.3 170.7 691.1 173.4 693.8 178.9 693.8 184.3 693.8 187 693.8 192.4 696.5 195.1 699.2 197.8 699.2 200.5 693.8 200.5 691.1 200.5 691.1 203.3 691.1 206 691.1 206 691.1 208.7 693.8 211.4 696.5 222.2 693.8 224.9 696.5 227.6 699.2 230.4 701.9 233.1 704.6 233.1 704.6 233.1 707.3 235.8 707.3 238.5 710 238.5 707.3 241.2 707.3 246.6 707.3 243.9 712.7 243.9 715.4 243.9 718.2 243.9 723.6 246.6 726.3 249.3 729 249.3 729 252 731.7 252 731.7 254.7 734.4 254.7 734.4 254.7 737.1 257.5 737.1 257.5 739.8 257.5 739.8 260.2 739.8 260.2 742.5 260.2 745.3 260.2 748 262.9 748 262.9 750.7 265.6 753.4 268.3 753.4 271 756.1 271 756.1 273.7 758.8 273.7 758.8 276.4 761.5 276.4 761.5 276.4 764.2 276.4 764.2 276.4 766.9 276.4 769.6 276.4 769.6 276.4 772.4 279.1 775.1 281.8 777.8 284.6 780.5 290 783.2 292.7 783.2 298.1 783.2 303.5 783.2 306.2 785.9 311.7 788.6 317.1 791.3 319.8 796.7 322.5 802.2 325.2 804.9 325.2 804.9 327.9 807.6 330.6 810.3 333.3 810.3 333.3 813 336 815.7 336 815.7 336 818.4 336 823.8 330.6 832 333.3 834.7 336 840.1 338.8 842.8 344.2 845.5 346.9 845.5 349.6 848.2 352.3 850.9 355 853.7 355 856.4 360.4 856.4 360.4 853.7 363.1 850.9 363.1 848.2 363.1 845.5 365.9 845.5 365.9 842.8 368.6 842.8 371.3 837.4 374 840.1 374 840.1 376.7 842.8 376.7 842.8 379.4 842.8 379.4 842.8 382.1 842.8 382.1 845.5 384.8 848.2 384.8 850.9 387.5 853.7 390.2 853.7 393 853.7 393 856.4 398.4 859.1 401.1 864.5 401.1 867.2 403.8 869.9 406.5 875.3 411.9 883.5 417.3 875.3 425.5 878 428.2 880.8 425.5 886.2 428.2 891.6 428.2 894.3 430.9 897 430.9 897 433.6 899.7 433.6 897 436.3 899.7 439 899.7 439 902.4 439 902.4 439 905.1 441.7 905.1 441.7 907.9 441.7 910.6 444.4 910.6 441.7 913.3 441.7 916 439 916 441.7 918.7 444.4 921.4 449.9 921.4 452.6 921.4 455.3 921.4 458 924.1 460.7 926.8 463.4 929.5 466.1 932.2 468.8 935 471.5 937.7 474.3 940.4 477 943.1 479.7 945.8 485.1 943.1 487.8 945.8 490.5 945.8 493.2 948.5 495.9 951.2 495.9 953.9 498.6 953.9 498.6 956.6 501.4 959.3 501.4 959.3 504.1 959.3 506.8 959.3 509.5 964.8 506.8 967.5 504.1 970.2 493.2 967.5 495.9 972.9 495.9 975.6 504.1 978.3 504.1 978.3 506.8 981 504.1 983.7 506.8 986.4 509.5 989.2 512.2 986.4 517.6 991.9 520.3 994.6 523 997.3 525.7 994.6 528.5 994.6 525.7 991.9 528.5 991.9 531.2 991.9 533.9 991.9 536.6 994.6 542 997.3 542 997.3 547.4 1000 550.1 1000 550.1 1002.7 552.8 1002.7 555.6 1002.7 555.6 1002.7 558.3 1002.7 563.7 1002.7 569.1 1005.4 571.8 1008.1 574.5 1010.8 577.2 1013.6 582.7 1010.8 585.4 1010.8 585.4 1008.1 588.1 1005.4 590.8 1005.4 593.5 1005.4 596.2 1005.4 596.2 1002.7 596.2 1000 598.9 997.3 601.6 994.6 604.3 997.3 607 1000 609.8 1000 609.8 1002.7 612.5 1000 612.5 1000 615.2 997.3 615.2 997.3 615.2 994.6 617.9 991.9 617.9 989.2 617.9 986.4 617.9 986.4 617.9 983.7 617.9 981 617.9 981 617.9 978.3 620.6 978.3 620.6 978.3 623.3 978.3 626 978.3 626 975.6 626 978.3 626 978.3 626 981 626 983.7 626 983.7 628.7 986.4 628.7 986.4 628.7 986.4 631.4 989.2 631.4 989.2 631.4 989.2 634.1 991.9 634.1 991.9 636.9 991.9 636.9 991.9 639.6 991.9 642.3 991.9 642.3 994.6 645 994.6 645 997.3 647.7 997.3 650.4 997.3 653.1 997.3 653.1 994.6 655.8 994.6 658.5 994.6 661.2 991.9 661.2 989.2 664 989.2 664 989.2 666.7 989.2 666.7 991.9 669.4 1000 672.1 997.3 672.1 997.3 672.1 994.6 674.8 997.3 674.8 997.3 674.8 1000 674.8 1000 674.8 1002.7 672.1 1005.4 672.1 1005.4 674.8 1008.1 674.8 1008.1 677.5 1008.1 680.2 1008.1 682.9 1008.1 682.9 1008.1 685.6 1005.4 685.6 1005.4 685.6 1002.7 685.6 1002.7 685.6 1000 685.6 1000 685.6 1000 682.9 997.3 682.9 997.3 682.9 997.3 682.9 994.6 682.9 994.6 682.9 994.6 685.6 994.6 685.6 991.9 685.6 989.2 685.6 986.4 685.6 986.4 685.6 983.7 682.9 983.7 682.9 981 682.9 978.3 682.9 978.3 685.6 975.6 685.6 970.2 688.3 967.5 691.1 964.8 693.8 964.8 691.1 962.1 693.8 962.1 696.5 962.1 696.5 959.3 699.2 959.3 701.9 956.6 707.3 956.6 707.3 951.2 707.3 948.5 707.3 945.8 707.3 945.8 707.3 943.1 710 943.1 710 940.4 710 937.7 710 937.7 710 935 710 932.2 710 932.2 712.7 932.2 715.4 932.2 718.2 932.2 718.2 932.2 720.9 932.2 720.9 935 723.6 932.2 723.6 932.2 726.3 929.5 726.3 932.2 726.3 932.2 726.3 935 729 935 729 935 731.7 937.7 731.7 935 734.4 935 731.7 935 734.4 935 734.4 935 737.1 937.7 737.1 937.7 739.8 937.7 742.5 940.4 745.3 940.4 745.3 940.4 745.3 940.4 745.3 940.4 748 940.4 753.4 937.7 753.4 935 753.4 932.2 750.7 932.2 750.7 929.5 750.7 929.5 745.3 926.8 745.3 926.8 745.3 926.8 745.3 924.1 745.3 924.1 745.3 924.1 745.3 921.4 745.3 921.4 745.3 918.7 748 918.7 748 916 748 913.3 748 910.6 748 910.6 748 907.9 750.7 907.9 750.7 905.1 750.7 902.4 748 902.4 748 899.7 748 897 748 897 748 894.3 750.7 891.6 753.4 886.2 753.4 883.5 753.4 880.8 753.4 880.8 750.7 878 750.7 878 748 875.3 748 872.6 748 869.9 750.7 869.9 750.7 867.2 750.7 864.5 748 864.5 748 861.8 748 859.1 748 856.4 748 856.4 748 853.7 748 853.7 750.7 850.9 753.4 848.2 753.4 848.2 753.4 845.5 753.4 845.5 753.4 842.8 753.4 842.8 753.4 842.8 753.4 840.1 753.4 840.1 753.4 840.1 753.4 837.4 756.1 837.4 756.1 837.4 758.8 834.7 758.8 834.7 761.5 834.7 761.5 837.4 764.2 837.4 766.9 837.4 769.6 837.4 769.6 837.4 772.4 837.4 772.4 840.1 772.4 842.8 772.4 842.8 777.8 845.5 777.8 845.5 780.5 845.5 783.2 845.5 783.2 845.5 785.9 845.5 791.3 845.5 794 850.9 794 853.7 796.7 853.7 796.7 856.4 796.7 859.1 796.7 861.8 796.7 864.5 796.7 867.2 796.7 869.9 799.5 869.9 802.2 869.9 802.2 869.9 804.9 867.2 807.6 867.2 807.6 864.5 810.3 864.5 813 864.5 815.7 864.5 818.4 864.5 821.1 864.5 823.8 867.2 823.8 864.5 823.8 864.5 826.6 861.8 826.6 859.1 826.6 856.4 829.3 856.4 829.3 853.7 829.3 853.7 829.3 850.9 829.3 850.9 829.3 850.9 832 850.9 832 850.9 834.7 850.9 834.7 853.7 837.4 853.7 840.1 853.7 840.1 853.7 842.8 853.7 845.5 853.7 848.2 853.7 850.9 856.4 853.7 859.1 856.4 859.1 859.1 861.8 861.8 864.5 864.5 867.2 867.2 869.9 869.9 872.6 875.3 869.9 880.8 869.9 883.5 869.9 886.2 875.3 888.9 878 888.9 880.8 891.6 883.5 891.6 883.5 894.3 883.5 897 883.5 897 883.5 897 883.5 899.7 886.2 902.4 886.2 905.1 886.2 905.1 888.9 907.9 888.9 910.6 888.9 913.3 888.9 916 888.9 918.7 888.9 918.7 888.9 921.4 891.6 924.1 891.6 924.1 894.3 926.8 894.3 929.5 894.3 929.5 897 932.2 897 935 899.7 937.7 902.4 943.1 905.1 945.8 905.1 953.9 907.9 956.6 905.1 959.3 902.4 959.3 902.4 962.1 899.7 964.8 897 967.5 897 970.2 897 972.9 897 975.6 897 978.3 897 981 897 981 899.7 981 902.4 983.7 905.1 983.7 905.1 986.4 905.1 989.2 905.1 989.2 907.9 991.9 907.9 994.6 910.6 1000 913.3 1002.7 913.3 1005.4 913.3 1008.1 913.3 1008.1 916 1008.1 918.7 1008.1 921.4 1008.1 921.4 1008.1 924.1 1010.8 924.1 1013.6 924.1 1016.3 926.8 1019 926.8 1019 929.5 1021.7 932.2 1027.1 935 1029.8 935 1032.5 937.7 1037.9 940.4 1040.7 943.1 1046.1 945.8 1048.8 943.1 1054.2 943.1 1062.3 943.1 1073.2 940.4 1081.3 943.1 1084 943.1 1084 951.2 1086.7 951.2 1089.4 951.2 1092.1 951.2 1092.1 951.2 1094.9 951.2 1094.9 951.2 1097.6 951.2 1100.3 951.2 1094.9 951.2 1097.6 948.5 1100.3 948.5 1100.3 948.5 1103 948.5 1105.7 948.5 1108.4 948.5 1108.4 948.5 1111.1 948.5 1113.8 948.5 1113.8 945.8 1116.5 940.4 1122 937.7 1122 929.5 1122 926.8 1124.7 926.8 1124.7 924.1 1124.7 921.4 1127.4 918.7 1127.4 918.7 1127.4 916 1130.1 916 1130.1 918.7 1130.1 921.4 1132.8 921.4 1135.5 921.4 1138.2 921.4 1140.9 921.4 1143.6 921.4 1146.3 921.4 1146.3 918.7 1149.1 918.7 1149.1 916 1149.1 916 1151.8 916 1154.5 916 1154.5 918.7 1157.2 918.7 1159.9 921.4 1162.6 924.1 1165.3 926.8 1168 929.5 1173.4 929.5 1176.2 926.8 1176.2 926.8 1176.2 926.8 1178.9 926.8 1178.9 926.8 1181.6 926.8 1181.6 926.8 1184.3 926.8 1184.3 929.5 1187 929.5 1187 929.5 1187 929.5 1189.7 932.2 1189.7 932.2 1189.7 935 1189.7 935 1189.7 937.7 1189.7 937.7 1189.7 940.4 1189.7 943.1 1189.7 945.8 1189.7 948.5 1189.7 951.2 1189.7 951.2 1192.4 951.2 1195.1 951.2 1195.1 951.2 1195.1 951.2 1195.1 951.2 1195.1 948.5 1197.8 948.5 1200.5 948.5 1200.5 948.5 1203.3 951.2 1203.3 951.2 1203.3 951.2 1203.3 951.2 1206 951.2 1206 953.9 1206 953.9 1206 953.9 1208.7 953.9 1211.4 956.6 1214.1 959.3 1216.8 962.1 1222.2 962.1 1224.9 962.1 1224.9 962.1 1227.6 959.3 1230.4 959.3 1230.4 959.3 1233.1 959.3 1235.8 959.3 1235.8 959.3 1238.5 959.3 1238.5 959.3 1238.5 959.3 1241.2 956.6 1241.2 956.6 1243.9 956.6 1243.9 956.6 1243.9 956.6 1243.9 956.6 1243.9 953.9 1243.9 953.9 1246.6 953.9 1246.6 953.9 1249.3 953.9 1249.3 956.6 1249.3 959.3 1249.3 962.1 1249.3 964.8 1249.3 967.5 1249.3 970.2 1249.3 970.2 1252 972.9 1254.7 975.6 1254.7 975.6 1254.7 978.3 1254.7 981 1254.7 983.7 1254.7 983.7 1254.7 986.4 1252 994.6 1257.5 994.6 1260.2 994.6 1262.9 989.2 1265.6 983.7 1265.6 981 1265.6 978.3 1265.6 975.6 1265.6 972.9 1265.6 970.2 1265.6 970.2 1265.6 967.5 1265.6 964.8 1268.3 962.1 1271 959.3 1271 959.3 1271 959.3 1273.7 956.6 1271 951.2 1271 945.8 1271 943.1 1273.7 943.1 1276.4 940.4 1279.1 937.7 1279.1 937.7 1281.8 935 1281.8 932.2 1284.6 932.2 1284.6 929.5 1284.6 926.8 1287.3 926.8 1290 924.1 1292.7 921.4 1295.4 929.5 1298.1 924.1 1298.1 918.7 1298.1 916 1300.8 910.6 1295.4 894.3 1300.8 894.3 1303.5 894.3 1306.2 894.3 1306.2 891.6 1308.9 891.6 1308.9 888.9 1311.7 888.9 1311.7 886.2 1314.4 880.8 1319.8 883.5 1322.5 883.5 1325.2 883.5 1325.2 886.2 1327.9 886.2 1330.6 886.2 1333.3 883.5 1336 883.5 1336 883.5 1338.8 886.2 1338.8 886.2 1341.5 886.2 1341.5 888.9 1341.5 888.9 1344.2 891.6 1349.6 894.3 1352.3 897 1355 899.7 1357.7 902.4 1360.4 902.4 1363.1 902.4 1363.1 902.4 1365.9 902.4 1368.6 902.4 1368.6 897 1371.3 897 1371.3 894.3 1374 894.3 1376.7 891.6 1376.7 891.6 1376.7 891.6 1379.4 888.9 1379.4 888.9 1379.4 886.2 1382.1 886.2 1382.1 886.2 1384.8 888.9 1387.5 888.9 1390.2 888.9 1390.2 891.6 1393 891.6 1395.7 894.3 1395.7 894.3 1395.7 897 1398.4 899.7 1398.4 899.7 1401.1 899.7 1401.1 899.7 1403.8 899.7 1403.8 899.7 1403.8 897 1403.8 897 1406.5 897 1409.2 897 1411.9 894.3 1411.9 894.3 1411.9 894.3 1414.6 894.3 1414.6 894.3 1414.6 894.3 1417.3 894.3 1417.3 894.3 1417.3 894.3 1417.3 891.6 1417.3 891.6 1417.3 891.6 1417.3 888.9 1420.1 888.9 1420.1 886.2 1422.8 886.2 1425.5 886.2 1428.2 886.2 1428.2 883.5 1430.9 883.5 1433.6 883.5 1436.3 883.5 1439 883.5 1441.7 883.5 1441.7 880.8 1444.4 880.8 1447.2 880.8 1447.2 880.8 1449.9 878 1452.6 878 1455.3 875.3 1458 872.6 1458 869.9 1460.7 867.2 1460.7 864.5 1460.7 864.5 1460.7 861.8 1463.4 861.8 1463.4 861.8 1466.1 859.1 1466.1 859.1 1468.8 856.4 1468.8 859.1 1468.8 856.4 1474.3 856.4 1479.7 853.7 1485.1 856.4 1487.8 856.4 1495.9 859.1 1495.9 853.7 1495.9 853.7 1495.9 850.9 1495.9 850.9 1495.9 850.9 1495.9 848.2 1495.9 848.2 1495.9 845.5 1495.9 842.8 1495.9 842.8 1495.9 840.1 1495.9 837.4 1495.9 834.7 1495.9 832 1498.6 832 1498.6 829.3 1498.6 829.3 1498.6 826.6 1498.6 826.6 1498.6 826.6 1498.6 823.8 1498.6 823.8 1498.6 821.1 1501.4 821.1 1504.1 821.1 1506.8 821.1 1512.2 821.1 1514.9 821.1 1517.6 821.1 1523 821.1 1525.7 821.1 1528.5 821.1 1528.5 821.1 1531.2 821.1 1531.2 821.1 1531.2 818.4 1533.9 818.4 1533.9 818.4 1536.6 818.4 1536.6 815.7 1539.3 815.7 1542 813 1542 813 1544.7 810.3 1544.7 810.3 1547.4 807.6 1547.4 804.9 1547.4 802.2 1547.4 802.2 1547.4 796.7 1552.8 794 1552.8 788.6 1552.8 783.2 1552.8 777.8 1552.8 775.1 1552.8 775.1 1552.8 772.4 1552.8 772.4 1552.8 772.4 1552.8 769.6 1555.6 769.6 1555.6 769.6 1558.3 766.9 1558.3 764.2 1558.3 761.5 1558.3 758.8 1558.3 756.1 1558.3 753.4 1558.3 753.4 1561 750.7 1561 748 1563.7 748 1563.7 745.3 1563.7 742.5 1563.7 739.8 1563.7 739.8 1563.7 737.1 1563.7 737.1 1563.7 734.4 1563.7 731.7 1563.7 731.7 1566.4 729 1569.1 726.3 1574.5 723.6 1574.5 720.9 1574.5 718.2 1579.9 718.2 1579.9 715.4 1579.9 712.7 1582.7 712.7 1585.4 712.7 1588.1 712.7 1590.8 712.7 1593.5 710 1596.2 710 1598.9 710 1598.9 710 1601.6 710 1601.6 710 1604.3 710 1607 710 1607 707.3 1609.8 707.3 1612.5 707.3 1615.2 704.6 1615.2 704.6 1617.9 701.9 1623.3 701.9 1626 699.2 1628.7 699.2 1628.7 696.5 1631.4 693.8 1631.4 693.8 1631.4 693.8 1631.4 693.8 1634.1 693.8 1634.1 691.1 1634.1 688.3 1634.1 685.6 1636.9 682.9 1636.9 682.9 1636.9 680.2 1636.9 677.5 1636.9 674.8 1636.9 672.1 1634.1 672.1 1634.1 669.4 1636.9 669.4 1636.9 672.1 1639.6 672.1 1642.3 672.1 1645 672.1 1645 672.1 1647.7 669.4 1650.4 666.7 1653.1 664 1653.1 661.2 1655.8 661.2 1655.8 658.5 1655.8 655.8 1658.5 655.8 1658.5 653.1 1658.5 650.4 1661.2 650.4 1664 647.7 1666.7 647.7 1666.7 653.1 1669.4 650.4 1672.1 647.7 1669.4 647.7 1669.4 645 1669.4 642.3 1669.4 639.6 1669.4 636.9 1672.1 634.1 1674.8 631.4 1680.2 631.4 1682.9 631.4 1682.9 631.4 1685.6 634.1 1685.6 636.9 1688.3 639.6 1691.1 639.6 1693.8 639.6 1693.8 636.9 1696.5 636.9 1699.2 636.9 1699.2 634.1 1701.9 634.1 1704.6 634.1 1707.3 634.1 1710 634.1 1712.7 634.1 1715.4 634.1 1718.2 636.9 1720.9 636.9 1723.6 639.6 1723.6 639.6 1726.3 639.6 1729 636.9 1729 636.9 1729 634.1 1731.7 634.1 1731.7 631.4 1734.4 631.4 1734.4 628.7 1737.1 628.7 1739.8 628.7 1739.8 626 1742.5 626 1745.3 626 1745.3 626 1748 623.3 1748 623.3 1748 620.6 1748 620.6 1748 617.9 1748 617.9 1750.7 617.9 1753.4 617.9 1753.4 615.2 1753.4 612.5 1753.4 609.8 1750.7 601.6 1750.7 598.9 1750.7 596.2 1748 596.2 1748 593.5 1745.3 590.8 1748 590.8 1748 588.1 1748 585.4 1748 593.5 1748 593.5 1745.3 590.8 1745.3 585.4 1742.5 582.7 1739.8 577.2 1739.8 574.5 1739.8 569.1 1739.8 566.4 1739.8 563.7 1737.1 563.7 1737.1 563.7 1734.4 561 1731.7 561 1729 561 1726.3 558.3 1726.3 558.3 1726.3 558.3 1726.3 561 1723.6 561 1723.6 561 1723.6 561 1720.9 563.7 1718.2 563.7 1718.2 563.7 1715.4 563.7 1712.7 563.7 1712.7 561 1710 558.3 1707.3 555.6 1707.3 552.8 1704.6 552.8 1701.9 552.8 1699.2 552.8 1699.2 552.8 1696.5 552.8 1688.3 552.8 1688.3 547.4 1688.3 544.7 1688.3 539.3 1685.6 536.6 1685.6 533.9 1682.9 523 1682.9 523 1682.9 520.3 1682.9 520.3 1680.2 517.6 1677.5 514.9 1677.5 509.5 1674.8 506.8 1674.8 504.1 1672.1 504.1 1672.1 501.4 1672.1 498.6 1674.8 498.6 1674.8 495.9 1677.5 495.9 1680.2 493.2 1682.9 490.5 1682.9 487.8 1682.9 487.8 1682.9 485.1 1682.9 482.4 1680.2 482.4 1677.5 482.4 1672.1 479.7 1677.5 474.3 1677.5 471.5 1677.5 468.8 1677.5 466.1 1677.5 466.1 1677.5 463.4 1674.8 463.4 1672.1 463.4 1669.4 463.4 1666.7 460.7 1666.7 463.4 1666.7 466.1 1669.4 466.1 1666.7 468.8 1666.7 471.5 1658.5 474.3 1655.8 471.5 1650.4 468.8 1647.7 468.8 1645 466.1 1642.3 466.1 1645 466.1 1642.3 466.1 1639.6 466.1 1639.6 466.1 1636.9 466.1 1634.1 466.1 1631.4 466.1 1628.7 466.1 1626 466.1 1626 466.1 1623.3 463.4 1620.6 463.4 1617.9 460.7 1615.2 460.7 1612.5 460.7 1615.2 463.4 1615.2 466.1 1615.2 468.8 1612.5 466.1 1609.8 466.1 1609.8 466.1 1609.8 468.8 1607 468.8 1604.3 468.8 1607 468.8 1604.3 468.8 1601.6 466.1 1601.6 466.1 1598.9 463.4 1596.2 460.7 1596.2 460.7 1596.2 458 1596.2 455.3 1596.2 455.3 1593.5 452.6 1590.8 452.6 1590.8 449.9 1588.1 449.9 1585.4 449.9 1582.7 449.9 1582.7 449.9 1582.7 449.9 1579.9 452.6 1579.9 452.6 1579.9 452.6 1579.9 449.9 1579.9 449.9 1579.9 447.2 1577.2 447.2 1577.2 444.4 1574.5 441.7 1574.5 441.7 1571.8 441.7 1571.8 441.7 1569.1 441.7 1569.1 441.7 1566.4 441.7 1566.4 439 1566.4 441.7 1566.4 444.4 1566.4 447.2 1563.7 444.4 1561 444.4 1561 441.7 1558.3 441.7 1555.6 441.7 1552.8 441.7 1552.8 439 1552.8 439 1552.8 439 1550.1 439 1550.1 436.3 1550.1 433.6 1550.1 433.6 1550.1 430.9 1550.1 430.9 1547.4 428.2 1544.7 425.5 1542 420.1 1539.3 417.3 1536.6 414.6 1531.2 414.6 1528.5 417.3 1525.7 420.1 1520.3 422.8 1525.7 425.5 1528.5 425.5 1528.5 428.2 1531.2 425.5 1533.9 425.5 1533.9 422.8 1536.6 425.5 1536.6 428.2 1536.6 428.2 1533.9 430.9 1531.2 433.6 1531.2 430.9 1528.5 433.6 1525.7 433.6 1520.3 433.6 1517.6 436.3 1517.6 439 1514.9 439 1514.9 441.7 1512.2 441.7 1512.2 444.4 1509.5 444.4 1506.8 447.2 1506.8 447.2 1504.1 449.9 1501.4 449.9 1498.6 449.9 1498.6 452.6 1495.9 452.6 1493.2 452.6 1493.2 449.9 1490.5 449.9 1490.5 447.2 1487.8 447.2 1487.8 444.4 1485.1 441.7 1485.1 441.7 1485.1 439 1482.4 439 1479.7 439 1477 439 1474.3 439 1474.3 439 1474.3 439 1471.5 436.3 1468.8 436.3 1466.1 433.6 1468.8 430.9 1468.8 430.9 1468.8 428.2 1466.1 425.5 1466.1 425.5 1463.4 422.8 1463.4 417.3 1460.7 414.6 1458 411.9 1460.7 403.8 1458 401.1 1455.3 398.4 1449.9 395.7 1447.2 398.4 1447.2 398.4 1436.3 398.4 1436.3 398.4 1436.3 398.4 1433.6 398.4 1433.6 398.4 1430.9 398.4 1439 393 1436.3 393 1436.3 390.2 1433.6 390.2 1433.6 387.5 1433.6 384.8 1430.9 384.8 1430.9 382.1 1430.9 382.1 1428.2 379.4 1425.5 379.4 1425.5 376.7 1428.2 379.4 1425.5 379.4 1425.5 376.7 1425.5 374 1428.2 374 1428.2 374 1430.9 374 1430.9 374 1430.9 374 1433.6 374 1433.6 374 1436.3 374 1436.3 371.3 1441.7 371.3 1444.4 371.3 1447.2 371.3 1447.2 368.6 1449.9 368.6 1455.3 365.9 1455.3 360.4 1455.3 360.4 1455.3 360.4 1455.3 357.7 1455.3 357.7 1458 357.7 1458 357.7 1460.7 357.7 1463.4 357.7 1463.4 357.7 1466.1 355 1463.4 344.2 1460.7 341.5 1458 338.8 1455.3 338.8 1455.3 336 1452.6 333.3 1455.3 330.6 1455.3 327.9 1455.3 325.2 1458 325.2 1460.7 325.2 1460.7 322.5 1463.4 319.8 1463.4 319.8 1463.4 317.1 1460.7 317.1 1458 317.1 1455.3 317.1 1455.3 317.1 1452.6 314.4 1452.6 314.4 1449.9 311.7 1449.9 308.9 1449.9 308.9 1444.4 306.2 1444.4 306.2 1441.7 306.2 1444.4 311.7 1444.4 311.7 1444.4 314.4 1444.4 317.1 1444.4 319.8 1444.4 322.5 1441.7 322.5 1439 325.2 1436.3 327.9 1430.9 333.3 1428.2 333.3 1422.8 333.3 1422.8 327.9 1417.3 330.6 1414.6 330.6 1414.6 333.3 1411.9 333.3 1409.2 336 1409.2 333.3 1406.5 333.3 1401.1 330.6 1398.4 330.6 1393 333.3 1393 333.3 1393 336 1390.2 336 1390.2 336 1387.5 336 1387.5 336 1384.8 336 1384.8 338.8 1384.8 338.8 1382.1 341.5 1382.1 341.5 1382.1 338.8 1382.1 336 1382.1 333.3 1379.4 333.3 1379.4 330.6 1376.7 330.6 1374 330.6 1371.3 330.6 1368.6 330.6 1365.9 330.6 1363.1 330.6 1360.4 330.6 1360.4 333.3 1360.4 333.3 1360.4 336 1360.4 336 1357.7 336 1357.7 333.3 1357.7 333.3 1355 330.6 1357.7 330.6 1360.4 327.9 1360.4 325.2 1360.4 322.5 1360.4 322.5 1360.4 319.8 1360.4 319.8 1360.4 317.1 1360.4 314.4 1360.4 311.7 1357.7 311.7 1355 311.7 1355 314.4 1352.3 314.4 1349.6 317.1 1344.2 314.4 1338.8 314.4 1336 314.4 1336 311.7 1333.3 311.7 1330.6 308.9 1330.6 308.9 1327.9 306.2 1325.2 303.5 1325.2 303.5 1322.5 300.8 1319.8 298.1 1319.8 298.1 1319.8 295.4 1319.8 292.7 1319.8 290 1319.8 290 1319.8 290 1317.1 287.3 1314.4 287.3 1314.4 287.3 1311.7 287.3 1311.7 290 1311.7 290 1311.7 292.7 1311.7 292.7 1311.7 292.7 1306.2 295.4 1306.2 292.7 1303.5 292.7 1303.5 290 1300.8 290 1300.8 290 1298.1 290 1298.1 287.3 1298.1 287.3 1298.1 284.6 1295.4 284.6 1292.7 281.8 1287.3 281.8 1284.6 281.8 1281.8 281.8 1279.1 281.8 1279.1 281.8 1276.4 281.8 1276.4 279.1 1273.7 279.1 1271 276.4 1271 276.4 1268.3 276.4 1265.6 276.4 1265.6 276.4 1265.6 279.1 1265.6 279.1 1265.6 279.1 1265.6 279.1 1262.9 279.1 1262.9 279.1 1260.2 276.4 1257.5 273.7 1257.5 273.7 1254.7 273.7 1252 273.7 1252 271 1249.3 271 1246.6 271 1246.6 271 1243.9 268.3 1243.9 268.3 1241.2 268.3 1241.2 268.3 1241.2 268.3 1241.2 271 1241.2 271 1241.2 273.7 1238.5 273.7 1238.5 276.4 1238.5 279.1 1233.1 284.6 1235.8 287.3 1238.5 290 1243.9 290 1246.6 292.7 1249.3 295.4 1252 300.8 1249.3 303.5 1249.3 306.2 1249.3 306.2 1252 308.9 1254.7 308.9 1254.7 311.7 1254.7 314.4 1254.7 317.1 1254.7 319.8 1254.7 322.5 1254.7 325.2 1257.5 325.2 1260.2 325.2 1268.3 327.9 1279.1 330.6 1273.7 341.5 1273.7 344.2 1271 344.2 1271 346.9 1271 349.6 1271 349.6 1273.7 352.3 1273.7 355 1276.4 355 1276.4 357.7 1276.4 357.7 1276.4 357.7 1276.4 360.4 1276.4 360.4 1276.4 363.1 1273.7 363.1 1271 365.9 1268.3 357.7 1268.3 355 1268.3 352.3 1268.3 349.6 1265.6 349.6 1262.9 349.6 1262.9 352.3 1262.9 355 1262.9 357.7 1260.2 357.7 1260.2 357.7 1257.5 357.7 1257.5 357.7 1254.7 355 1249.3 355 1249.3 360.4 1246.6 363.1 1246.6 363.1 1246.6 365.9 1246.6 365.9 1243.9 365.9 1243.9 368.6 1241.2 365.9 1238.5 363.1 1238.5 363.1 1235.8 363.1 1233.1 363.1 1233.1 365.9 1230.4 368.6 1227.6 368.6 1224.9 371.3 1224.9 371.3 1224.9 371.3 1222.2 376.7 1222.2 376.7 1222.2 376.7 1222.2 379.4 1222.2 379.4 1222.2 382.1 1222.2 382.1 1219.5 382.1 1219.5 384.8 1222.2 382.1 1222.2 382.1 1219.5 384.8 1208.7 387.5 1206 387.5 1203.3 390.2 1200.5 398.4 1200.5 403.8 1200.5 406.5 1197.8 406.5 1195.1 406.5 1192.4 406.5 1192.4 406.5 1189.7 403.8 1187 401.1 1181.6 395.7 1178.9 393 1176.2 393 1173.4 390.2 1173.4 390.2 1170.7 387.5 1170.7 384.8 1168 382.1 1165.3 379.4 1165.3 379.4 1162.6 376.7 1159.9 374 1162.6 374 1162.6 371.3 1162.6 365.9 1165.3 363.1 1165.3 357.7 1165.3 355 1162.6 349.6 1159.9 346.9 1157.2 344.2 1159.9 346.9 1157.2 344.2 1154.5 344.2 1149.1 344.2 1149.1 344.2 1149.1 341.5 1149.1 341.5 1146.3 338.8 1143.6 336 1140.9 336 1140.9 333.3 1138.2 327.9 1135.5 325.2 1132.8 322.5 1130.1 319.8 1130.1 311.7 1124.7 311.7 1122 311.7 1122 314.4 1122 314.4 1119.2 314.4 1119.2 314.4 1116.5 314.4 1116.5 311.7 1116.5 311.7 1113.8 308.9 1113.8 306.2 1111.1 306.2 1111.1 303.5 1111.1 300.8 1111.1 300.8 1113.8 300.8 1113.8 298.1 1113.8 298.1 1113.8 295.4 1113.8 292.7 1113.8 292.7 1111.1 290 1108.4 290 1105.7 290 1105.7 290 1103 290 1100.3 287.3 1094.9 287.3 1094.9 290 1092.1 290 1092.1 292.7 1092.1 295.4 1089.4 298.1 1086.7 295.4 1086.7 292.7 1086.7 290 1086.7 290 1086.7 287.3 1084 287.3 1084 284.6 1081.3 281.8 1075.9 279.1 1073.2 276.4 1073.2 276.4 1067.8 273.7 1067.8 271 1067.8 271 1065 268.3 1065 268.3 1065 268.3 1065 265.6 1067.8 265.6 1070.5 265.6 1065 268.3 1065 265.6 1065 262.9 1067.8 262.9 1067.8 260.2 1067.8 260.2 1070.5 260.2 1070.5 257.5 1070.5 257.5 1073.2 254.7 1073.2 254.7 1075.9 254.7 1075.9 254.7 1078.6 252 1081.3 252 1081.3 252 1084 249.3 1084 246.6 1094.9 235.8 1094.9 233.1 1094.9 230.4 1094.9 227.6 1097.6 230.4 1097.6 230.4 1097.6 230.4 1100.3 233.1 1100.3 233.1 1103 233.1 1103 233.1 1105.7 233.1 1108.4 233.1 1108.4 230.4 1111.1 227.6 1111.1 227.6 1113.8 224.9 1113.8 224.9 1116.5 222.2 1116.5 219.5 1116.5 216.8 1113.8 216.8 1113.8 214.1 1116.5 214.1 1119.2 211.4 1119.2 211.4 1119.2 208.7 1119.2 206 1119.2 203.3 1119.2 203.3 1124.7 200.5 1127.4 200.5 1130.1 200.5 1130.1 195.1 1130.1 195.1 1130.1 192.4 1127.4 192.4 1127.4 189.7 1124.7 187 1122 184.3 1119.2 181.6 1116.5 181.6 1113.8 178.9 1113.8 176.2 1111.1 173.4 1111.1 170.7 1111.1 170.7 1111.1 168 1108.4 168 1108.4 165.3 1108.4 165.3 1103 162.6 1103 162.6 1100.3 162.6 1100.3 165.3 1097.6 168 1097.6 168 1094.9 168 1094.9 168 1092.1 168 1092.1 168 1092.1 165.3 1089.4 162.6 1089.4 162.6 1086.7 162.6 1084 162.6 1081.3 159.9 1081.3 159.9 1081.3 159.9 1078.6 162.6 1078.6 165.3 1078.6 168 1078.6 170.7 1078.6 170.7 1078.6 173.4 1078.6 173.4 1075.9 176.2 1075.9 176.2 1073.2 178.9 1070.5 178.9 1067.8 178.9 1067.8 176.2 1067.8 173.4 1067.8 170.7 1065 170.7 1062.3 170.7 1059.6 170.7 1059.6 168 1056.9 168 1054.2 168 1054.2 165.3 1051.5 165.3 1048.8 165.3 1046.1 170.7 1043.4 173.4 1040.7 176.2 1040.7 178.9 1040.7 178.9 1040.7 181.6 1040.7 181.6 1037.9 184.3 1037.9 184.3 1035.2 187 1035.2 187 1035.2 187 1032.5 189.7 1029.8 189.7 1027.1 189.7 1027.1 187 1024.4 187 1021.7 187 1019 184.3 1016.3 184.3 1016.3 184.3 1016.3 184.3 1016.3 184.3 1019 184.3 1021.7 181.6 1021.7 181.6 1021.7 181.6 1024.4 181.6 1024.4 178.9 1024.4 178.9 1024.4 178.9 1024.4 176.2 1021.7 176.2 1021.7 173.4 1021.7 170.7 1021.7 168 1021.7 168 1021.7 165.3 1021.7 162.6 1019 157.2 1016.3 154.5 1010.8 151.8 1005.4 149.1 1000 149.1 994.6 151.8 989.2 151.8 986.4 154.5 986.4 154.5 981 154.5 981 154.5 981 154.5 981 151.8 981 151.8 981 151.8 981 149.1 981 149.1 981 146.3 978.3 146.3 978.3 143.6 978.3 140.9 978.3 140.9 975.6 138.2 975.6 135.5 972.9 135.5 972.9 132.8 972.9 130.1 972.9 130.1 972.9 127.4 972.9 124.7 972.9 122 970.2 122 970.2 122 967.5 122 967.5 122 967.5 122 964.8 122 964.8 124.7 948.5 122 948.5 124.7 945.8 124.7 943.1 124.7 943.1 127.4 940.4 127.4 940.4 127.4 937.7 127.4 937.7 127.4 937.7 127.4 935 130.1 935 130.1 935 130.1 935 130.1 935 127.4 935 127.4 932.2 127.4 932.2 127.4 929.5 127.4 929.5 127.4 929.5 127.4 926.8 127.4 926.8 127.4 924.1 124.7 924.1 122 924.1 122 921.4 119.2 918.7 116.5 916 119.2 916 119.2 913.3 119.2 913.3 119.2 910.6 116.5 910.6 116.5 907.9 116.5 907.9 113.8 907.9 113.8 907.9 111.1 905.1 111.1 902.4 108.4 899.7 111.1 899.7 108.4 897 108.4 894.3 108.4 894.3 108.4 891.6 108.4 891.6 105.7 888.9 105.7 886.2 105.7 886.2 108.4 883.5 105.7 878 111.1 878 108.4 875.3 108.4 872.6 108.4 869.9 108.4 869.9 108.4 867.2 105.7 867.2 105.7 867.2 103 864.5 103 864.5 100.3 861.8 100.3 856.4 97.6 853.7 103 853.7 105.7 853.7 108.4 850.9 111.1 848.2 113.8 845.5 113.8 845.5 113.8 845.5 113.8 845.5 113.8 842.8 113.8 842.8 111.1 842.8 111.1 842.8 108.4 842.8 105.7 842.8 103 842.8 103 840.1 100.3 840.1 97.6 840.1 97.6 842.8 97.6 842.8 97.6 842.8 94.9 842.8 92.1 842.8 89.4 840.1 86.7 840.1 84 840.1 81.3 837.4 81.3 837.4 78.6 837.4 81.3 834.7 81.3 834.7 81.3 832 81.3 829.3 78.6 823.8 78.6 823.8 75.9 823.8 73.2 821.1 70.5 821.1 67.8 818.4 65 815.7 62.3 815.7 59.6 813 59.6 813 56.9 813 54.2 813 51.5 813 48.8 813 46.1 815.7 46.1 815.7 43.4 815.7 43.4 818.4 40.7 818.4 40.7 818.4 37.9 818.4 37.9 815.7 35.2 813 32.5 815.7 32.5 815.7 29.8 815.7 24.4 813 27.1 810.3 27.1 810.3 27.1 807.6 27.1 807.6 24.4 807.6 24.4 807.6 21.7 807.6 21.7 807.6 21.7 804.9 21.7 802.2 21.7 799.5 21.7 799.5 21.7 799.5 21.7 799.5 21.7 796.7 24.4 796.7 24.4 796.7 24.4 794 24.4 794 27.1 791.3 24.4 794 19 791.3 16.3 791.3 13.6 788.6 13.6 785.9 13.6 783.2 13.6 783.2 13.6 783.2 16.3 783.2 19 780.5 21.7 777.8 24.4 775.1 24.4 775.1 27.1 772.4 24.4 769.6 21.7 772.4 21.7 775.1 21.7 775.1 21.7 775.1 21.7 775.1 21.7 775.1 21.7 775.1 21.7 775.1 21.7 775.1 21.7 775.1 19 775.1 16.3 772.4 16.3 772.4 16.3 769.6 16.3 766.9 16.3 766.9 16.3 764.2 16.3 764.2 16.3 761.5 13.6 758.8 13.6 758.8 13.6 761.5 16.3 758.8 16.3 756.1 16.3 756.1 13.6 756.1 13.6 753.4 10.8 750.7 13.6 748 16.3 745.3 19 745.3 21.7 742.5 24.4 742.5 24.4 739.8 27.1 739.8 27.1 739.8 27.1 739.8 29.8 742.5 32.5 742.5 32.5 745.3 32.5 745.3 32.5 745.3 32.5 748 32.5 748 32.5 748 32.5 748 32.5 750.7 32.5 750.7 32.5 750.7 35.2 753.4 35.2 753.4 37.9 756.1 43.4 756.1 46.1 756.1 48.8 756.1 48.8 753.4 51.5 753.4 54.2 750.7 54.2 750.7 56.9 750.7 56.9 748 59.6 748 62.3 748 62.3 748 62.3 750.7 65 750.7 65 750.7 67.8 750.7 67.8 748 70.5 748 70.5 750.7 73.2 750.7 75.9 753.4 75.9 750.7 78.6 748 81.3 748 81.3 745.3 81.3 745.3 81.3 745.3 84 742.5 84 742.5 84 739.8 84 739.8 84 737.1 84 737.1 81.3 734.4 81.3 734.4 81.3 731.7 81.3 731.7 81.3 731.7 81.3 729 78.6 729 78.6 726.3 78.6 726.3 81.3 723.6 81.3 720.9 81.3 720.9 78.6 718.2 78.6 715.4 78.6 715.4 78.6 712.7 81.3 712.7 81.3 710 81.3 710 81.3 710 81.3 707.3 81.3 707.3 84 707.3 84 707.3 84 704.6 86.7 704.6 89.4 704.6 89.4 704.6 89.4 704.6 92.1 701.9 92.1 701.9 94.9 701.9 97.6 701.9 97.6 699.2 100.3 696.5 100.3 693.8 97.6 693.8 94.9 691.1 94.9 691.1 92.1 688.3 92.1 685.6 92.1 680.2 100.3 677.5 97.6 677.5 97.6 674.8 94.9 674.8 94.9 674.8 94.9 672.1 92.1 672.1 92.1 669.4 92.1 666.7 94.9 664 94.9 661.2 94.9 658.5 92.1 655.8 89.4 653.1 86.7 647.7 89.4 650.4 84 647.7 75.9 650.4 67.8 650.4 65ZM574.5 598.9C783.2 598.9 783.2 273.7 574.5 273.7 365.9 273.7 365.9 598.9 574.5 598.9L574.5 598.9ZM574.5 598.9C783.2 598.9 783.2 273.7 574.5 273.7 365.9 273.7 365.9 598.9 574.5 598.9L574.5 598.9Z",
        "width": 1745
      },
      "search": [
        "cr"
      ]
    },
    {
      "uid": "0ddd3e8201ccc7d41f7b7c9d27eca6c1",
      "css": "link",
      "code": 59409,
      "src": "fontawesome"
    },
    {
      "uid": "921e3974e54ff9e8b7cd906a3dc74636",
      "css": "direction",
      "code": 61732,
      "src": "fontawesome"
    },
    {
      "uid": "0357f7abbc0babf43509669f332e41e6",
      "css": "mobile",
      "code": 61707,
      "src": "fontawesome"
    },
    {
      "uid": "d7271d490b71df4311e32cdacae8b331",
      "css": "home",
      "code": 59410,
      "src": "fontawesome"
    },
    {
      "uid": "12f4ece88e46abd864e40b35e05b11cd",
      "css": "ok",
      "code": 59411,
      "src": "fontawesome"
    },
    {
      "uid": "90e0aff5c929e444038355746a952aaf",
      "css": "shopping-basket",
      "code": 62097,
      "src": "fontawesome"
    },
    {
      "uid": "bbfb51903f40597f0b70fd75bc7b5cac",
      "css": "trash",
      "code": 61944,
      "src": "fontawesome"
    },
    {
      "uid": "2d6150442079cbda7df64522dc24f482",
      "css": "down-dir",
      "code": 59412,
      "src": "fontawesome"
    },
    {
      "uid": "9dc654095085167524602c9acc0c5570",
      "css": "left-dir",
      "code": 59413,
      "src": "fontawesome"
    },
    {
      "uid": "80cd1022bd9ea151d554bec1fa05f2de",
      "css": "up-dir",
      "code": 59414,
      "src": "fontawesome"
    },
    {
      "uid": "fb1c799ffe5bf8fb7f8bcb647c8fe9e6",
      "css": "right-dir",
      "code": 59415,
      "src": "fontawesome"
    },
    {
      "uid": "9dd9e835aebe1060ba7190ad2b2ed951",
      "css": "search",
      "code": 59416,
      "src": "fontawesome"
    },
    {
      "uid": "3d4ea8a78dc34efe891f3a0f3d961274",
      "css": "info",
      "code": 61737,
      "src": "fontawesome"
    },
    {
      "uid": "43ab845088317bd348dee1d975700c48",
      "css": "ok-circled",
      "code": 59417,
      "src": "fontawesome"
    },
    {
      "uid": "1400d5103edd2fa6d2d61688fee79a5a",
      "css": "ok-squared",
      "code": 61770,
      "src": "fontawesome"
    },
    {
      "uid": "4b900d04e8ab8c82f080c1cfbac5772c",
      "css": "check-empty",
      "code": 61590,
      "src": "fontawesome"
    }
  ]
}